%!PS-Adobe-3.0
%%Creator: graphviz version 2.38.0 (20140413.2041)
%%Title: callgraph
%%Pages: (atend)
%%BoundingBox: (atend)
%%EndComments
save
%%BeginProlog
/DotDict 200 dict def
DotDict begin

/setupLatin1 {
mark
/EncodingVector 256 array def
 EncodingVector 0

ISOLatin1Encoding 0 255 getinterval putinterval
EncodingVector 45 /hyphen put

% Set up ISO Latin 1 character encoding
/starnetISO {
        dup dup findfont dup length dict begin
        { 1 index /FID ne { def }{ pop pop } ifelse
        } forall
        /Encoding EncodingVector def
        currentdict end definefont
} def
/Times-Roman starnetISO def
/Times-Italic starnetISO def
/Times-Bold starnetISO def
/Times-BoldItalic starnetISO def
/Helvetica starnetISO def
/Helvetica-Oblique starnetISO def
/Helvetica-Bold starnetISO def
/Helvetica-BoldOblique starnetISO def
/Courier starnetISO def
/Courier-Oblique starnetISO def
/Courier-Bold starnetISO def
/Courier-BoldOblique starnetISO def
cleartomark
} bind def

%%BeginResource: procset graphviz 0 0
/coord-font-family /Times-Roman def
/default-font-family /Times-Roman def
/coordfont coord-font-family findfont 8 scalefont def

/InvScaleFactor 1.0 def
/set_scale {
       dup 1 exch div /InvScaleFactor exch def
       scale
} bind def

% styles
/solid { [] 0 setdash } bind def
/dashed { [9 InvScaleFactor mul dup ] 0 setdash } bind def
/dotted { [1 InvScaleFactor mul 6 InvScaleFactor mul] 0 setdash } bind def
/invis {/fill {newpath} def /stroke {newpath} def /show {pop newpath} def} bind def
/bold { 2 setlinewidth } bind def
/filled { } bind def
/unfilled { } bind def
/rounded { } bind def
/diagonals { } bind def
/tapered { } bind def

% hooks for setting color 
/nodecolor { sethsbcolor } bind def
/edgecolor { sethsbcolor } bind def
/graphcolor { sethsbcolor } bind def
/nopcolor {pop pop pop} bind def

/beginpage {	% i j npages
	/npages exch def
	/j exch def
	/i exch def
	/str 10 string def
	npages 1 gt {
		gsave
			coordfont setfont
			0 0 moveto
			(\() show i str cvs show (,) show j str cvs show (\)) show
		grestore
	} if
} bind def

/set_font {
	findfont exch
	scalefont setfont
} def

% draw text fitted to its expected width
/alignedtext {			% width text
	/text exch def
	/width exch def
	gsave
		width 0 gt {
			[] 0 setdash
			text stringwidth pop width exch sub text length div 0 text ashow
		} if
	grestore
} def

/boxprim {				% xcorner ycorner xsize ysize
		4 2 roll
		moveto
		2 copy
		exch 0 rlineto
		0 exch rlineto
		pop neg 0 rlineto
		closepath
} bind def

/ellipse_path {
	/ry exch def
	/rx exch def
	/y exch def
	/x exch def
	matrix currentmatrix
	newpath
	x y translate
	rx ry scale
	0 0 1 0 360 arc
	setmatrix
} bind def

/endpage { showpage } bind def
/showpage { } def

/layercolorseq
	[	% layer color sequence - darkest to lightest
		[0 0 0]
		[.2 .8 .8]
		[.4 .8 .8]
		[.6 .8 .8]
		[.8 .8 .8]
	]
def

/layerlen layercolorseq length def

/setlayer {/maxlayer exch def /curlayer exch def
	layercolorseq curlayer 1 sub layerlen mod get
	aload pop sethsbcolor
	/nodecolor {nopcolor} def
	/edgecolor {nopcolor} def
	/graphcolor {nopcolor} def
} bind def

/onlayer { curlayer ne {invis} if } def

/onlayers {
	/myupper exch def
	/mylower exch def
	curlayer mylower lt
	curlayer myupper gt
	or
	{invis} if
} def

/curlayer 0 def

%%EndResource
%%EndProlog
%%BeginSetup
14 default-font-family set_font
1 setmiterlimit
% /arrowlength 10 def
% /arrowwidth 5 def

% make sure pdfmark is harmless for PS-interpreters other than Distiller
/pdfmark where {pop} {userdict /pdfmark /cleartomark load put} ifelse
% make '<<' and '>>' safe on PS Level 1 devices
/languagelevel where {pop languagelevel}{1} ifelse
2 lt {
    userdict (<<) cvn ([) cvn load put
    userdict (>>) cvn ([) cvn load put
} if

%%EndSetup
setupLatin1
%%Page: 1 1
%%PageBoundingBox: 36 36 714 1327
%%PageOrientation: Portrait
0 0 1 beginpage
gsave
36 36 678 1291 boxprim clip newpath
1 1 set_scale 0 rotate 40 40 translate
% F3936dd0
gsave
1 setlinewidth
0 0 0 nodecolor
387.25 26.87 55.31 26.74 ellipse_path stroke
0 0 0 nodecolor
14 /Times-Roman set_font
359.25 30.67 moveto 56 (<cycle 9>) alignedtext
0 0 0 nodecolor
14 /Times-Roman set_font
356.25 15.67 moveto 62 (69 124 430) alignedtext
grestore
% F3c7d228
gsave
1 setlinewidth
0 0 0 nodecolor
562.25 1151.75 63.78 26.74 ellipse_path stroke
0 0 0 nodecolor
14 /Times-Roman set_font
525.25 1155.55 moveto 74 (\(below main\)) alignedtext
0 0 0 nodecolor
14 /Times-Roman set_font
527.75 1140.55 moveto 69 (813 337 659) alignedtext
grestore
% F3c7e528
gsave
1 setlinewidth
0 0 0 nodecolor
562.25 1047.01 60.21 26.74 ellipse_path stroke
0 0 0 nodecolor
14 /Times-Roman set_font
548.25 1050.81 moveto 28 (main) alignedtext
0 0 0 nodecolor
14 /Times-Roman set_font
527.75 1035.81 moveto 69 (813 337 659) alignedtext
grestore
% F3c7d228->F3c7e528
gsave
1 setlinewidth
0 0 0 edgecolor
newpath 562.25 1124.83 moveto
562.25 1112.54 562.25 1097.65 562.25 1084.26 curveto
stroke
0 0 0 edgecolor
newpath 565.75 1083.93 moveto
562.25 1073.93 lineto
558.75 1083.93 lineto
closepath fill
1 setlinewidth
solid
0 0 0 edgecolor
newpath 565.75 1083.93 moveto
562.25 1073.93 lineto
558.75 1083.93 lineto
closepath stroke
0 0 0 edgecolor
14 /Times-Roman set_font
562.25 1095.68 moveto 95 (813 337 659 \(1x\)) alignedtext
grestore
% F4092d98
gsave
1 setlinewidth
0 0 0 nodecolor
323.25 942.27 128.89 26.74 ellipse_path stroke
0 0 0 nodecolor
14 /Times-Roman set_font
240.25 946.07 moveto 166 (stegogui::stegogui\(QWidget*\)) alignedtext
0 0 0 nodecolor
14 /Times-Roman set_font
288.75 931.07 moveto 69 (123 908 999) alignedtext
grestore
% F3c7e528->F4092d98
gsave
1 setlinewidth
0 0 0 edgecolor
newpath 519.8 1027.76 moveto
483.01 1011.95 429.24 988.83 387.23 970.78 curveto
stroke
0 0 0 edgecolor
newpath 388.48 967.5 moveto
377.92 966.77 lineto
385.72 973.94 lineto
closepath fill
1 setlinewidth
solid
0 0 0 edgecolor
newpath 388.48 967.5 moveto
377.92 966.77 lineto
385.72 973.94 lineto
closepath stroke
0 0 0 edgecolor
14 /Times-Roman set_font
457.25 990.94 moveto 95 (123 908 999 \(1x\)) alignedtext
grestore
% F4093ab8
gsave
1 setlinewidth
0 0 0 nodecolor
562.25 942.27 92.76 26.74 ellipse_path stroke
0 0 0 nodecolor
14 /Times-Roman set_font
504.75 946.07 moveto 115 (QApplication::exec\(\)) alignedtext
0 0 0 nodecolor
14 /Times-Roman set_font
527.75 931.07 moveto 69 (639 308 987) alignedtext
grestore
% F3c7e528->F4093ab8
gsave
1 setlinewidth
0 0 0 edgecolor
newpath 562.25 1020.09 moveto
562.25 1007.8 562.25 992.91 562.25 979.52 curveto
stroke
0 0 0 edgecolor
newpath 565.75 979.19 moveto
562.25 969.19 lineto
558.75 979.19 lineto
closepath fill
1 setlinewidth
solid
0 0 0 edgecolor
newpath 565.75 979.19 moveto
562.25 969.19 lineto
558.75 979.19 lineto
closepath stroke
0 0 0 edgecolor
14 /Times-Roman set_font
562.25 990.94 moveto 95 (639 308 987 \(1x\)) alignedtext
grestore
% F3ff65b8
gsave
1 setlinewidth
0 0 0 nodecolor
562.25 1256.49 60.21 26.74 ellipse_path stroke
0 0 0 nodecolor
14 /Times-Roman set_font
546.75 1260.29 moveto 31 (_start) alignedtext
0 0 0 nodecolor
14 /Times-Roman set_font
527.75 1245.29 moveto 69 (813 337 659) alignedtext
grestore
% F3ff65b8->F3c7d228
gsave
1 setlinewidth
0 0 0 edgecolor
newpath 562.25 1229.57 moveto
562.25 1217.28 562.25 1202.39 562.25 1189 curveto
stroke
0 0 0 edgecolor
newpath 565.75 1188.67 moveto
562.25 1178.67 lineto
558.75 1188.67 lineto
closepath fill
1 setlinewidth
solid
0 0 0 edgecolor
newpath 565.75 1188.67 moveto
562.25 1178.67 lineto
558.75 1188.67 lineto
closepath stroke
0 0 0 edgecolor
14 /Times-Roman set_font
562.25 1200.42 moveto 95 (813 337 659 \(1x\)) alignedtext
grestore
% F40a7258
gsave
1 setlinewidth
0 0 0 nodecolor
159.25 837.53 140.01 26.74 ellipse_path stroke
0 0 0 nodecolor
14 /Times-Roman set_font
68.25 841.33 moveto 182 (Ui_stegogui::setupUi\(QWidget*\)) alignedtext
0 0 0 nodecolor
14 /Times-Roman set_font
128.25 826.33 moveto 62 (70 454 373) alignedtext
grestore
% F4092d98->F40a7258
gsave
1 setlinewidth
0 0 0 edgecolor
newpath 278.31 916.88 moveto
267.38 910.71 255.8 903.96 245.25 897.4 curveto
231.26 888.7 216.34 878.74 202.93 869.52 curveto
stroke
0 0 0 edgecolor
newpath 204.57 866.4 moveto
194.35 863.59 lineto
200.58 872.16 lineto
closepath fill
1 setlinewidth
solid
0 0 0 edgecolor
newpath 204.57 866.4 moveto
194.35 863.59 lineto
200.58 872.16 lineto
closepath stroke
0 0 0 edgecolor
14 /Times-Roman set_font
245.25 886.2 moveto 88 (70 454 373 \(1x\)) alignedtext
grestore
% F40da238
gsave
1 setlinewidth
0 0 0 nodecolor
387.25 765.79 152.06 26.74 ellipse_path stroke
0 0 0 nodecolor
14 /Times-Roman set_font
287.75 769.59 moveto 199 (QFileDialog::QFileDialog\(QWidg...) alignedtext
0 0 0 nodecolor
14 /Times-Roman set_font
356.25 754.59 moveto 62 (53 305 794) alignedtext
grestore
% F4092d98->F40da238
gsave
1 setlinewidth
0 0 0 edgecolor
newpath 332.83 915.15 moveto
343.84 885.13 361.98 835.69 374.26 802.22 curveto
stroke
0 0 0 edgecolor
newpath 377.55 803.4 moveto
377.71 792.81 lineto
370.98 800.99 lineto
closepath fill
1 setlinewidth
solid
0 0 0 edgecolor
newpath 377.55 803.4 moveto
377.71 792.81 lineto
370.98 800.99 lineto
closepath stroke
0 0 0 edgecolor
14 /Times-Roman set_font
345.25 886.2 moveto 88 (53 305 794 \(1x\)) alignedtext
grestore
% F4a20358
gsave
1 setlinewidth
0 0 0 nodecolor
562.25 837.53 107.46 26.74 ellipse_path stroke
0 0 0 nodecolor
14 /Times-Roman set_font
494.25 841.33 moveto 136 (QGuiApplication::exec\(\)) alignedtext
0 0 0 nodecolor
14 /Times-Roman set_font
527.75 826.33 moveto 69 (639 307 632) alignedtext
grestore
% F4093ab8->F4a20358
gsave
1 setlinewidth
0 0 0 edgecolor
newpath 562.25 915.35 moveto
562.25 903.06 562.25 888.17 562.25 874.78 curveto
stroke
0 0 0 edgecolor
newpath 565.75 874.45 moveto
562.25 864.45 lineto
558.75 874.45 lineto
closepath fill
1 setlinewidth
solid
0 0 0 edgecolor
newpath 565.75 874.45 moveto
562.25 864.45 lineto
558.75 874.45 lineto
closepath stroke
0 0 0 edgecolor
14 /Times-Roman set_font
562.25 886.2 moveto 95 (639 307 632 \(1x\)) alignedtext
grestore
% F40ad1b8
gsave
1 setlinewidth
0 0 0 nodecolor
144.25 694.05 144.5 26.74 ellipse_path stroke
0 0 0 nodecolor
14 /Times-Roman set_font
50.25 697.85 moveto 188 (QTextEdit::QTextEdit\(QWidget*\)) alignedtext
0 0 0 nodecolor
14 /Times-Roman set_font
113.25 682.85 moveto 62 (69 761 770) alignedtext
grestore
% F40a7258->F40ad1b8
gsave
1 setlinewidth
0 0 0 edgecolor
newpath 144.6 810.78 moveto
141.97 804.99 139.63 798.75 138.25 792.66 curveto
133.7 772.64 134.79 749.75 137.21 731.17 curveto
stroke
0 0 0 edgecolor
newpath 140.7 731.47 moveto
138.7 721.06 lineto
133.78 730.44 lineto
closepath fill
1 setlinewidth
solid
0 0 0 edgecolor
newpath 140.7 731.47 moveto
138.7 721.06 lineto
133.78 730.44 lineto
closepath stroke
0 0 0 edgecolor
14 /Times-Roman set_font
138.25 762.09 moveto 88 (69 761 770 \(2x\)) alignedtext
grestore
% F4c86018
gsave
1 setlinewidth
0 0 0 nodecolor
188.25 550.57 96.33 26.74 ellipse_path stroke
0 0 0 nodecolor
14 /Times-Roman set_font
128.25 554.37 moveto 120 (0x00000000002fb6d0) alignedtext
0 0 0 nodecolor
14 /Times-Roman set_font
157.25 539.37 moveto 62 (69 560 566) alignedtext
grestore
% F40ad1b8->F4c86018
gsave
1 setlinewidth
0 0 0 edgecolor
newpath 152.32 667.1 moveto
159.3 644.66 169.45 612.02 177.19 587.15 curveto
stroke
0 0 0 edgecolor
newpath 180.6 587.94 moveto
180.23 577.36 lineto
173.92 585.87 lineto
closepath fill
1 setlinewidth
solid
0 0 0 edgecolor
newpath 180.6 587.94 moveto
180.23 577.36 lineto
173.92 585.87 lineto
closepath stroke
0 0 0 edgecolor
14 /Times-Roman set_font
174.25 618.61 moveto 88 (69 560 566 \(2x\)) alignedtext
grestore
% F40da238->F3936dd0
gsave
1 setlinewidth
0 0 0 edgecolor
newpath 387.25 738.71 moveto
387.25 710.33 387.25 663.59 387.25 623.31 curveto
387.25 623.31 387.25 623.31 387.25 130.61 curveto
387.25 108.54 387.25 83.79 387.25 64.12 curveto
stroke
0 0 0 edgecolor
newpath 390.75 64.05 moveto
387.25 54.05 lineto
383.75 64.05 lineto
closepath fill
1 setlinewidth
solid
0 0 0 edgecolor
newpath 390.75 64.05 moveto
387.25 54.05 lineto
383.75 64.05 lineto
closepath stroke
0 0 0 edgecolor
14 /Times-Roman set_font
387.25 389.76 moveto 88 (53 301 523 \(2x\)) alignedtext
grestore
% F47b7e58
gsave
1 setlinewidth
0 0 0 nodecolor
538.25 622.31 111.95 26.74 ellipse_path stroke
0 0 0 nodecolor
14 /Times-Roman set_font
467.25 626.11 moveto 142 (QCoreApplication::exec\(\)) alignedtext
0 0 0 nodecolor
14 /Times-Roman set_font
503.75 611.11 moveto 69 (639 291 938) alignedtext
grestore
% F47b7e58->F3936dd0
gsave
1 setlinewidth
0 0 0 edgecolor
newpath 530.12 595.4 moveto
523.16 570.88 514.25 532.9 514.25 499.2 curveto
514.25 499.2 514.25 499.2 514.25 130.61 curveto
514.25 90.52 475.52 63.38 440.84 47.11 curveto
stroke
0 0 0 edgecolor
newpath 442.23 43.89 moveto
431.67 43 lineto
439.37 50.28 lineto
closepath fill
1 setlinewidth
solid
0 0 0 edgecolor
newpath 442.23 43.89 moveto
431.67 43 lineto
439.37 50.28 lineto
closepath stroke
0 0 0 edgecolor
14 /Times-Roman set_font
514.25 337.39 moveto 95 (639 291 788 \(5x\)) alignedtext
grestore
% F4812328
gsave
1 setlinewidth
0 0 0 nodecolor
260.25 131.61 97.66 26.74 ellipse_path stroke
0 0 0 nodecolor
14 /Times-Roman set_font
199.25 135.41 moveto 122 (0x0000000000318410) alignedtext
0 0 0 nodecolor
14 /Times-Roman set_font
229.25 120.41 moveto 62 (69 157 754) alignedtext
grestore
% F4812328->F3936dd0
gsave
1 setlinewidth
0 0 0 edgecolor
newpath 266.55 104.65 moveto
270.39 93.37 276.32 80.71 285.25 71.74 curveto
297.41 59.52 313.53 50.49 329.35 43.9 curveto
stroke
0 0 0 edgecolor
newpath 331.06 46.99 moveto
339.12 40.11 lineto
328.53 40.46 lineto
closepath fill
1 setlinewidth
solid
0 0 0 edgecolor
newpath 331.06 46.99 moveto
339.12 40.11 lineto
328.53 40.46 lineto
closepath stroke
0 0 0 edgecolor
14 /Times-Roman set_font
285.25 75.54 moveto 88 (69 156 109 \(8x\)) alignedtext
grestore
% F4a20358->F47b7e58
gsave
1 setlinewidth
0 0 0 edgecolor
newpath 559.31 810.39 moveto
555.04 772.48 547.12 702.12 542.3 659.33 curveto
stroke
0 0 0 edgecolor
newpath 545.78 658.88 moveto
541.18 649.34 lineto
538.82 659.66 lineto
closepath fill
1 setlinewidth
solid
0 0 0 edgecolor
newpath 545.78 658.88 moveto
541.18 649.34 lineto
538.82 659.66 lineto
closepath stroke
0 0 0 edgecolor
14 /Times-Roman set_font
557.25 762.09 moveto 95 (639 291 938 \(1x\)) alignedtext
grestore
% F4c86708
gsave
1 setlinewidth
0 0 0 nodecolor
199.25 445.83 157.87 26.74 ellipse_path stroke
0 0 0 nodecolor
14 /Times-Roman set_font
95.75 449.63 moveto 207 (QWidgetTextControl::QWidgetTex...) alignedtext
0 0 0 nodecolor
14 /Times-Roman set_font
168.25 434.63 moveto 62 (69 416 574) alignedtext
grestore
% F4c86018->F4c86708
gsave
1 setlinewidth
0 0 0 edgecolor
newpath 191.03 523.64 moveto
192.34 511.36 193.94 496.47 195.37 483.08 curveto
stroke
0 0 0 edgecolor
newpath 198.89 483.06 moveto
196.47 472.75 lineto
191.93 482.32 lineto
closepath fill
1 setlinewidth
solid
0 0 0 edgecolor
newpath 198.89 483.06 moveto
196.47 472.75 lineto
191.93 482.32 lineto
closepath stroke
0 0 0 edgecolor
14 /Times-Roman set_font
195.25 494.5 moveto 88 (69 416 574 \(2x\)) alignedtext
grestore
% F4c89a68
gsave
1 setlinewidth
0 0 0 nodecolor
234.25 341.09 95.42 26.74 ellipse_path stroke
0 0 0 nodecolor
14 /Times-Roman set_font
174.75 344.89 moveto 119 (0x000000000031af60) alignedtext
0 0 0 nodecolor
14 /Times-Roman set_font
203.25 329.89 moveto 62 (69 413 118) alignedtext
grestore
% F4c86708->F4c89a68
gsave
1 setlinewidth
0 0 0 edgecolor
newpath 208.08 418.9 moveto
212.35 406.37 217.54 391.14 222.17 377.55 curveto
stroke
0 0 0 edgecolor
newpath 225.51 378.6 moveto
225.42 368.01 lineto
218.88 376.34 lineto
closepath fill
1 setlinewidth
solid
0 0 0 edgecolor
newpath 225.51 378.6 moveto
225.42 368.01 lineto
218.88 376.34 lineto
closepath stroke
0 0 0 edgecolor
14 /Times-Roman set_font
219.25 389.76 moveto 88 (69 413 118 \(2x\)) alignedtext
grestore
% F4e754b8
gsave
1 setlinewidth
0 0 0 nodecolor
257.25 236.35 97.66 26.74 ellipse_path stroke
0 0 0 nodecolor
14 /Times-Roman set_font
196.25 240.15 moveto 122 (0x00000000003184b0) alignedtext
0 0 0 nodecolor
14 /Times-Roman set_font
226.25 225.15 moveto 62 (69 403 447) alignedtext
grestore
% F4c89a68->F4e754b8
gsave
1 setlinewidth
0 0 0 edgecolor
newpath 240.05 314.16 moveto
242.83 301.75 246.2 286.69 249.22 273.2 curveto
stroke
0 0 0 edgecolor
newpath 252.68 273.79 moveto
251.45 263.27 lineto
245.85 272.26 lineto
closepath fill
1 setlinewidth
solid
0 0 0 edgecolor
newpath 252.68 273.79 moveto
251.45 263.27 lineto
245.85 272.26 lineto
closepath stroke
0 0 0 edgecolor
14 /Times-Roman set_font
247.25 285.02 moveto 88 (69 403 447 \(2x\)) alignedtext
grestore
% F4e754b8->F4812328
gsave
1 setlinewidth
0 0 0 edgecolor
newpath 258.01 209.42 moveto
258.37 197.14 258.8 182.25 259.19 168.86 curveto
stroke
0 0 0 edgecolor
newpath 262.7 168.63 moveto
259.49 158.53 lineto
255.7 168.42 lineto
closepath fill
1 setlinewidth
solid
0 0 0 edgecolor
newpath 262.7 168.63 moveto
259.49 158.53 lineto
255.7 168.42 lineto
closepath stroke
0 0 0 edgecolor
14 /Times-Roman set_font
259.25 180.28 moveto 88 (69 157 754 \(2x\)) alignedtext
grestore
endpage
showpage
grestore
%%PageTrailer
%%EndPage: 1
%%Trailer
%%Pages: 1
%%BoundingBox: 36 36 714 1327
end
restore
%%EOF
