%!PS-Adobe-2.0 EPSF-2.0
%%Title: /home/armin/Entwicklung/c++/qtstegomaster/doc/Kritik.dia
%%Creator: Dia v0.97.3
%%CreationDate: Tue May 31 00:03:36 2016
%%For: armin
%%Orientation: Portrait
%%Magnification: 1.0000
%%BoundingBox: 0 0 436 83
%%BeginSetup
%%EndSetup
%%EndComments
%%BeginProlog
[ /.notdef /.notdef /.notdef /.notdef /.notdef /.notdef /.notdef /.notdef /.notdef /.notdef
/.notdef /.notdef /.notdef /.notdef /.notdef /.notdef /.notdef /.notdef /.notdef /.notdef
/.notdef /.notdef /.notdef /.notdef /.notdef /.notdef /.notdef /.notdef /.notdef /.notdef
/.notdef /.notdef /space /exclam /quotedbl /numbersign /dollar /percent /ampersand /quoteright
/parenleft /parenright /asterisk /plus /comma /hyphen /period /slash /zero /one
/two /three /four /five /six /seven /eight /nine /colon /semicolon
/less /equal /greater /question /at /A /B /C /D /E
/F /G /H /I /J /K /L /M /N /O
/P /Q /R /S /T /U /V /W /X /Y
/Z /bracketleft /backslash /bracketright /asciicircum /underscore /quoteleft /a /b /c
/d /e /f /g /h /i /j /k /l /m
/n /o /p /q /r /s /t /u /v /w
/x /y /z /braceleft /bar /braceright /asciitilde /.notdef /.notdef /.notdef
/.notdef /.notdef /.notdef /.notdef /.notdef /.notdef /.notdef /.notdef /.notdef /.notdef
/.notdef /.notdef /.notdef /.notdef /.notdef /.notdef /.notdef /.notdef /.notdef /.notdef
/.notdef /.notdef /.notdef /.notdef /.notdef /.notdef /.notdef /.notdef /.notdef /.notdef
/space /exclamdown /cent /sterling /currency /yen /brokenbar /section /dieresis /copyright
/ordfeminine /guillemotleft /logicalnot /hyphen /registered /macron /degree /plusminus /twosuperior /threesuperior
/acute /mu /paragraph /periodcentered /cedilla /onesuperior /ordmasculine /guillemotright /onequarter /onehalf
/threequarters /questiondown /Agrave /Aacute /Acircumflex /Atilde /Adieresis /Aring /AE /Ccedilla
/Egrave /Eacute /Ecircumflex /Edieresis /Igrave /Iacute /Icircumflex /Idieresis /Eth /Ntilde
/Ograve /Oacute /Ocircumflex /Otilde /Odieresis /multiply /Oslash /Ugrave /Uacute /Ucircumflex
/Udieresis /Yacute /Thorn /germandbls /agrave /aacute /acircumflex /atilde /adieresis /aring
/ae /ccedilla /egrave /eacute /ecircumflex /edieresis /igrave /iacute /icircumflex /idieresis
/eth /ntilde /ograve /oacute /ocircumflex /otilde /odieresis /divide /oslash /ugrave
/uacute /ucircumflex /udieresis /yacute /thorn /ydieresis] /isolatin1encoding exch def
/cp {closepath} bind def
/c {curveto} bind def
/f {fill} bind def
/a {arc} bind def
/ef {eofill} bind def
/ex {exch} bind def
/gr {grestore} bind def
/gs {gsave} bind def
/sa {save} bind def
/rs {restore} bind def
/l {lineto} bind def
/m {moveto} bind def
/rm {rmoveto} bind def
/n {newpath} bind def
/s {stroke} bind def
/sh {show} bind def
/slc {setlinecap} bind def
/slj {setlinejoin} bind def
/slw {setlinewidth} bind def
/srgb {setrgbcolor} bind def
/rot {rotate} bind def
/sc {scale} bind def
/sd {setdash} bind def
/ff {findfont} bind def
/sf {setfont} bind def
/scf {scalefont} bind def
/sw {stringwidth pop} bind def
/tr {translate} bind def

/ellipsedict 8 dict def
ellipsedict /mtrx matrix put
/ellipse
{ ellipsedict begin
   /endangle exch def
   /startangle exch def
   /yrad exch def
   /xrad exch def
   /y exch def
   /x exch def   /savematrix mtrx currentmatrix def
   x y tr xrad yrad sc
   0 0 1 startangle endangle arc
   savematrix setmatrix
   end
} def

/mergeprocs {
dup length
3 -1 roll
dup
length
dup
5 1 roll
3 -1 roll
add
array cvx
dup
3 -1 roll
0 exch
putinterval
dup
4 2 roll
putinterval
} bind def
/Times-Roman-latin1
    /Times-Roman findfont
    dup length dict begin
	{1 index /FID ne {def} {pop pop} ifelse} forall
	/Encoding isolatin1encoding def
    currentdict end
definefont pop
/Times-Italic-latin1
    /Times-Italic findfont
    dup length dict begin
	{1 index /FID ne {def} {pop pop} ifelse} forall
	/Encoding isolatin1encoding def
    currentdict end
definefont pop
/Times-Bold-latin1
    /Times-Bold findfont
    dup length dict begin
	{1 index /FID ne {def} {pop pop} ifelse} forall
	/Encoding isolatin1encoding def
    currentdict end
definefont pop
/Times-BoldItalic-latin1
    /Times-BoldItalic findfont
    dup length dict begin
	{1 index /FID ne {def} {pop pop} ifelse} forall
	/Encoding isolatin1encoding def
    currentdict end
definefont pop
/AvantGarde-Gothic-latin1
    /AvantGarde-Gothic findfont
    dup length dict begin
	{1 index /FID ne {def} {pop pop} ifelse} forall
	/Encoding isolatin1encoding def
    currentdict end
definefont pop
/AvantGarde-BookOblique-latin1
    /AvantGarde-BookOblique findfont
    dup length dict begin
	{1 index /FID ne {def} {pop pop} ifelse} forall
	/Encoding isolatin1encoding def
    currentdict end
definefont pop
/AvantGarde-Demi-latin1
    /AvantGarde-Demi findfont
    dup length dict begin
	{1 index /FID ne {def} {pop pop} ifelse} forall
	/Encoding isolatin1encoding def
    currentdict end
definefont pop
/AvantGarde-DemiOblique-latin1
    /AvantGarde-DemiOblique findfont
    dup length dict begin
	{1 index /FID ne {def} {pop pop} ifelse} forall
	/Encoding isolatin1encoding def
    currentdict end
definefont pop
/Bookman-Light-latin1
    /Bookman-Light findfont
    dup length dict begin
	{1 index /FID ne {def} {pop pop} ifelse} forall
	/Encoding isolatin1encoding def
    currentdict end
definefont pop
/Bookman-LightItalic-latin1
    /Bookman-LightItalic findfont
    dup length dict begin
	{1 index /FID ne {def} {pop pop} ifelse} forall
	/Encoding isolatin1encoding def
    currentdict end
definefont pop
/Bookman-Demi-latin1
    /Bookman-Demi findfont
    dup length dict begin
	{1 index /FID ne {def} {pop pop} ifelse} forall
	/Encoding isolatin1encoding def
    currentdict end
definefont pop
/Bookman-DemiItalic-latin1
    /Bookman-DemiItalic findfont
    dup length dict begin
	{1 index /FID ne {def} {pop pop} ifelse} forall
	/Encoding isolatin1encoding def
    currentdict end
definefont pop
/Courier-latin1
    /Courier findfont
    dup length dict begin
	{1 index /FID ne {def} {pop pop} ifelse} forall
	/Encoding isolatin1encoding def
    currentdict end
definefont pop
/Courier-Oblique-latin1
    /Courier-Oblique findfont
    dup length dict begin
	{1 index /FID ne {def} {pop pop} ifelse} forall
	/Encoding isolatin1encoding def
    currentdict end
definefont pop
/Courier-Bold-latin1
    /Courier-Bold findfont
    dup length dict begin
	{1 index /FID ne {def} {pop pop} ifelse} forall
	/Encoding isolatin1encoding def
    currentdict end
definefont pop
/Courier-BoldOblique-latin1
    /Courier-BoldOblique findfont
    dup length dict begin
	{1 index /FID ne {def} {pop pop} ifelse} forall
	/Encoding isolatin1encoding def
    currentdict end
definefont pop
/Helvetica-latin1
    /Helvetica findfont
    dup length dict begin
	{1 index /FID ne {def} {pop pop} ifelse} forall
	/Encoding isolatin1encoding def
    currentdict end
definefont pop
/Helvetica-Oblique-latin1
    /Helvetica-Oblique findfont
    dup length dict begin
	{1 index /FID ne {def} {pop pop} ifelse} forall
	/Encoding isolatin1encoding def
    currentdict end
definefont pop
/Helvetica-Bold-latin1
    /Helvetica-Bold findfont
    dup length dict begin
	{1 index /FID ne {def} {pop pop} ifelse} forall
	/Encoding isolatin1encoding def
    currentdict end
definefont pop
/Helvetica-BoldOblique-latin1
    /Helvetica-BoldOblique findfont
    dup length dict begin
	{1 index /FID ne {def} {pop pop} ifelse} forall
	/Encoding isolatin1encoding def
    currentdict end
definefont pop
/Helvetica-Narrow-latin1
    /Helvetica-Narrow findfont
    dup length dict begin
	{1 index /FID ne {def} {pop pop} ifelse} forall
	/Encoding isolatin1encoding def
    currentdict end
definefont pop
/Helvetica-Narrow-Oblique-latin1
    /Helvetica-Narrow-Oblique findfont
    dup length dict begin
	{1 index /FID ne {def} {pop pop} ifelse} forall
	/Encoding isolatin1encoding def
    currentdict end
definefont pop
/Helvetica-Narrow-Bold-latin1
    /Helvetica-Narrow-Bold findfont
    dup length dict begin
	{1 index /FID ne {def} {pop pop} ifelse} forall
	/Encoding isolatin1encoding def
    currentdict end
definefont pop
/Helvetica-Narrow-BoldOblique-latin1
    /Helvetica-Narrow-BoldOblique findfont
    dup length dict begin
	{1 index /FID ne {def} {pop pop} ifelse} forall
	/Encoding isolatin1encoding def
    currentdict end
definefont pop
/NewCenturySchlbk-Roman-latin1
    /NewCenturySchlbk-Roman findfont
    dup length dict begin
	{1 index /FID ne {def} {pop pop} ifelse} forall
	/Encoding isolatin1encoding def
    currentdict end
definefont pop
/NewCenturySchlbk-Italic-latin1
    /NewCenturySchlbk-Italic findfont
    dup length dict begin
	{1 index /FID ne {def} {pop pop} ifelse} forall
	/Encoding isolatin1encoding def
    currentdict end
definefont pop
/NewCenturySchlbk-Bold-latin1
    /NewCenturySchlbk-Bold findfont
    dup length dict begin
	{1 index /FID ne {def} {pop pop} ifelse} forall
	/Encoding isolatin1encoding def
    currentdict end
definefont pop
/NewCenturySchlbk-BoldItalic-latin1
    /NewCenturySchlbk-BoldItalic findfont
    dup length dict begin
	{1 index /FID ne {def} {pop pop} ifelse} forall
	/Encoding isolatin1encoding def
    currentdict end
definefont pop
/Palatino-Roman-latin1
    /Palatino-Roman findfont
    dup length dict begin
	{1 index /FID ne {def} {pop pop} ifelse} forall
	/Encoding isolatin1encoding def
    currentdict end
definefont pop
/Palatino-Italic-latin1
    /Palatino-Italic findfont
    dup length dict begin
	{1 index /FID ne {def} {pop pop} ifelse} forall
	/Encoding isolatin1encoding def
    currentdict end
definefont pop
/Palatino-Bold-latin1
    /Palatino-Bold findfont
    dup length dict begin
	{1 index /FID ne {def} {pop pop} ifelse} forall
	/Encoding isolatin1encoding def
    currentdict end
definefont pop
/Palatino-BoldItalic-latin1
    /Palatino-BoldItalic findfont
    dup length dict begin
	{1 index /FID ne {def} {pop pop} ifelse} forall
	/Encoding isolatin1encoding def
    currentdict end
definefont pop
/Symbol-latin1
    /Symbol findfont
definefont pop
/ZapfChancery-MediumItalic-latin1
    /ZapfChancery-MediumItalic findfont
    dup length dict begin
	{1 index /FID ne {def} {pop pop} ifelse} forall
	/Encoding isolatin1encoding def
    currentdict end
definefont pop
/ZapfDingbats-latin1
    /ZapfDingbats findfont
    dup length dict begin
	{1 index /FID ne {def} {pop pop} ifelse} forall
	/Encoding isolatin1encoding def
    currentdict end
definefont pop
14.779958 -14.779958 scale
-5.550000 -7.950000 translate
%%EndProlog


0.100000 slw
[] 0 sd
[] 0 sd
0 slj
1.000000 0.000000 0.000000 srgb
n 5.600000 2.400000 m 5.600000 4.200000 l 8.950000 4.200000 l 8.950000 2.400000 l f
0.000000 0.000000 0.000000 srgb
n 5.600000 2.400000 m 5.600000 4.200000 l 8.950000 4.200000 l 8.950000 2.400000 l cp s
0.100000 slw
[] 0 sd
[] 0 sd
0 slj
0.000000 1.000000 0.000000 srgb
n 8.950000 2.400000 m 8.950000 4.200000 l 12.250000 4.200000 l 12.250000 2.400000 l f
0.000000 0.000000 0.000000 srgb
n 8.950000 2.400000 m 8.950000 4.200000 l 12.250000 4.200000 l 12.250000 2.400000 l cp s
0.100000 slw
[] 0 sd
[] 0 sd
0 slj
1.000000 0.000000 0.000000 srgb
n 16.100000 2.390000 m 16.100000 4.200000 l 19.200000 4.200000 l 19.200000 2.390000 l f
0.000000 0.000000 0.000000 srgb
n 16.100000 2.390000 m 16.100000 4.200000 l 19.200000 4.200000 l 19.200000 2.390000 l cp s
0.100000 slw
[] 0 sd
[] 0 sd
0 slj
0.000000 0.000000 1.000000 srgb
n 12.200000 2.400000 m 12.200000 4.200000 l 15.350000 4.200000 l 15.350000 2.400000 l f
0.000000 0.000000 0.000000 srgb
n 12.200000 2.400000 m 12.200000 4.200000 l 15.350000 4.200000 l 15.350000 2.400000 l cp s
/Helvetica-latin1 ff 0.560000 scf sf
1.000000 1.000000 1.000000 srgb
(xxxxxx00) 6.125000 3.465000 m
 gs 1 -1 sc sh gr
/Helvetica-latin1 ff 0.560000 scf sf
0.000000 0.000000 0.000000 srgb
(xxxxxx00) 9.300000 3.420000 m
 gs 1 -1 sc sh gr
/Helvetica-latin1 ff 0.560000 scf sf
1.000000 1.000000 1.000000 srgb
(xxxxxx00) 12.562500 3.330000 m
 gs 1 -1 sc sh gr
/Helvetica-latin1 ff 0.560000 scf sf
(xxxxxx00) 16.250000 3.310000 m
 gs 1 -1 sc sh gr
/Helvetica-latin1 ff 0.740833 scf sf
0.000000 0.000000 0.000000 srgb
(\(8 bit\)) 16.000000 7.438333 m
 gs 1 -1 sc sh gr
0.100000 slw
[] 0 sd
[] 0 sd
0 slc
n 7.750000 4.850000 m 7.839364 6.726646 l s
0.100000 slw
[] 0 sd
0 slj
0 slc
n 7.571182 6.350780 m 7.844682 6.838323 l 8.070617 6.326998 l s
0.100000 slw
[] 0 sd
[] 0 sd
0 slc
n 10.095500 4.710550 m 10.054754 6.626444 l s
0.100000 slw
[] 0 sd
0 slj
0 slc
n 9.813065 6.233019 m 10.052377 6.738222 l 10.312952 6.243650 l s
0.100000 slw
[] 0 sd
[] 0 sd
0 slc
n 13.420500 4.700550 m 12.540269 6.695423 l s
0.100000 slw
[] 0 sd
0 slj
0 slc
n 12.468258 6.239341 m 12.495134 6.797712 l 12.925705 6.441188 l s
0.100000 slw
[] 0 sd
[] 0 sd
0 slc
n 16.900000 4.650000 m 14.954395 6.688253 l s
0.100000 slw
[] 0 sd
0 slj
0 slc
n 15.041597 6.234830 m 14.877198 6.769126 l 15.403274 6.580068 l s
/Helvetica-latin1 ff 0.740833 scf sf
(00) 9.700000 7.488333 m
 gs 1 -1 sc sh gr
/Helvetica-latin1 ff 0.740833 scf sf
(00) 7.400000 7.538333 m
 gs 1 -1 sc sh gr
/Helvetica-latin1 ff 0.740833 scf sf
(00) 14.150000 7.488333 m
 gs 1 -1 sc sh gr
/Helvetica-latin1 ff 0.740833 scf sf
(00) 12.100000 7.488333 m
 gs 1 -1 sc sh gr
0.100000 slw
[] 0 sd
[] 0 sd
0 slj
0.000000 1.000000 0.000000 srgb
n 19.200000 2.400000 m 19.200000 4.200000 l 22.150000 4.200000 l 22.150000 2.400000 l f
0.000000 0.000000 0.000000 srgb
n 19.200000 2.400000 m 19.200000 4.200000 l 22.150000 4.200000 l 22.150000 2.400000 l cp s
0.100000 slw
[] 0 sd
[] 0 sd
0 slj
0.000000 0.000000 1.000000 srgb
n 22.125000 2.390000 m 22.125000 4.190000 l 25.075000 4.190000 l 25.075000 2.390000 l f
0.000000 0.000000 0.000000 srgb
n 22.125000 2.390000 m 22.125000 4.190000 l 25.075000 4.190000 l 25.075000 2.390000 l cp s
0.100000 slw
[] 0 sd
[] 0 sd
0 slj
1.000000 0.000000 0.000000 srgb
n 26.200000 2.500000 m 26.200000 4.300000 l 29.150000 4.300000 l 29.150000 2.500000 l f
0.000000 0.000000 0.000000 srgb
n 26.200000 2.500000 m 26.200000 4.300000 l 29.150000 4.300000 l 29.150000 2.500000 l cp s
0.100000 slw
[] 0 sd
[] 0 sd
0 slj
0.000000 1.000000 0.000000 srgb
n 29.000000 2.500000 m 29.000000 4.300000 l 32.000000 4.300000 l 32.000000 2.500000 l f
0.000000 0.000000 0.000000 srgb
n 29.000000 2.500000 m 29.000000 4.300000 l 32.000000 4.300000 l 32.000000 2.500000 l cp s
0.100000 slw
[] 0 sd
[] 0 sd
0 slj
0.000000 0.000000 1.000000 srgb
n 32.000000 2.500000 m 32.000000 4.300000 l 34.950000 4.300000 l 34.950000 2.500000 l f
0.000000 0.000000 0.000000 srgb
n 32.000000 2.500000 m 32.000000 4.300000 l 34.950000 4.300000 l 34.950000 2.500000 l cp s
0.100000 slw
[] 0 sd
[] 0 sd
0 slc
n 20.800000 4.750000 m 23.933608 6.647819 l s
[] 0 sd
0 slj
0 slc
n 24.254368 6.842082 m 23.697179 6.796905 l 23.933608 6.647819 l 23.956197 6.369225 l ef
n 24.254368 6.842082 m 23.697179 6.796905 l 23.933608 6.647819 l 23.956197 6.369225 l cp s
0.100000 slw
[] 0 sd
[] 0 sd
0 slc
n 23.645000 4.760000 m 24.865054 6.046745 l s
[] 0 sd
0 slj
0 slc
n 25.123074 6.318869 m 24.597632 6.128050 l 24.865054 6.046745 l 24.960463 5.784025 l ef
n 25.123074 6.318869 m 24.597632 6.128050 l 24.865054 6.046745 l 24.960463 5.784025 l cp s
0.100000 slw
[] 0 sd
[] 0 sd
0 slc
n 30.520000 4.600000 m 27.701946 6.525379 l s
[] 0 sd
0 slj
0 slc
n 27.392314 6.736928 m 27.664123 6.248441 l 27.701946 6.525379 l 27.946190 6.661283 l ef
n 27.392314 6.736928 m 27.664123 6.248441 l 27.701946 6.525379 l 27.946190 6.661283 l cp s
0.100000 slw
[] 0 sd
[] 0 sd
0 slc
n 27.395000 4.540000 m 26.620359 6.065927 l s
[] 0 sd
0 slj
0 slc
n 26.450609 6.400307 m 26.454021 5.841300 l 26.620359 6.065927 l 26.899862 6.067633 l ef
n 26.450609 6.400307 m 26.454021 5.841300 l 26.620359 6.065927 l 26.899862 6.067633 l cp s
/Helvetica-latin1 ff 0.740833 scf sf
(\(8 bit\)) 24.725000 7.525833 m
 gs 1 -1 sc sh gr
showpage
