%!PS-Adobe-2.0 EPSF-2.0
%%Title: /home/armin/Entwicklung/c++/qtstegomaster/doc/YCbCr.dia
%%Creator: Dia v0.97.3
%%CreationDate: Tue May 31 00:33:32 2016
%%For: armin
%%Orientation: Portrait
%%Magnification: 1.0000
%%BoundingBox: 0 0 436 103
%%BeginSetup
%%EndSetup
%%EndComments
%%BeginProlog
[ /.notdef /.notdef /.notdef /.notdef /.notdef /.notdef /.notdef /.notdef /.notdef /.notdef
/.notdef /.notdef /.notdef /.notdef /.notdef /.notdef /.notdef /.notdef /.notdef /.notdef
/.notdef /.notdef /.notdef /.notdef /.notdef /.notdef /.notdef /.notdef /.notdef /.notdef
/.notdef /.notdef /space /exclam /quotedbl /numbersign /dollar /percent /ampersand /quoteright
/parenleft /parenright /asterisk /plus /comma /hyphen /period /slash /zero /one
/two /three /four /five /six /seven /eight /nine /colon /semicolon
/less /equal /greater /question /at /A /B /C /D /E
/F /G /H /I /J /K /L /M /N /O
/P /Q /R /S /T /U /V /W /X /Y
/Z /bracketleft /backslash /bracketright /asciicircum /underscore /quoteleft /a /b /c
/d /e /f /g /h /i /j /k /l /m
/n /o /p /q /r /s /t /u /v /w
/x /y /z /braceleft /bar /braceright /asciitilde /.notdef /.notdef /.notdef
/.notdef /.notdef /.notdef /.notdef /.notdef /.notdef /.notdef /.notdef /.notdef /.notdef
/.notdef /.notdef /.notdef /.notdef /.notdef /.notdef /.notdef /.notdef /.notdef /.notdef
/.notdef /.notdef /.notdef /.notdef /.notdef /.notdef /.notdef /.notdef /.notdef /.notdef
/space /exclamdown /cent /sterling /currency /yen /brokenbar /section /dieresis /copyright
/ordfeminine /guillemotleft /logicalnot /hyphen /registered /macron /degree /plusminus /twosuperior /threesuperior
/acute /mu /paragraph /periodcentered /cedilla /onesuperior /ordmasculine /guillemotright /onequarter /onehalf
/threequarters /questiondown /Agrave /Aacute /Acircumflex /Atilde /Adieresis /Aring /AE /Ccedilla
/Egrave /Eacute /Ecircumflex /Edieresis /Igrave /Iacute /Icircumflex /Idieresis /Eth /Ntilde
/Ograve /Oacute /Ocircumflex /Otilde /Odieresis /multiply /Oslash /Ugrave /Uacute /Ucircumflex
/Udieresis /Yacute /Thorn /germandbls /agrave /aacute /acircumflex /atilde /adieresis /aring
/ae /ccedilla /egrave /eacute /ecircumflex /edieresis /igrave /iacute /icircumflex /idieresis
/eth /ntilde /ograve /oacute /ocircumflex /otilde /odieresis /divide /oslash /ugrave
/uacute /ucircumflex /udieresis /yacute /thorn /ydieresis] /isolatin1encoding exch def
/cp {closepath} bind def
/c {curveto} bind def
/f {fill} bind def
/a {arc} bind def
/ef {eofill} bind def
/ex {exch} bind def
/gr {grestore} bind def
/gs {gsave} bind def
/sa {save} bind def
/rs {restore} bind def
/l {lineto} bind def
/m {moveto} bind def
/rm {rmoveto} bind def
/n {newpath} bind def
/s {stroke} bind def
/sh {show} bind def
/slc {setlinecap} bind def
/slj {setlinejoin} bind def
/slw {setlinewidth} bind def
/srgb {setrgbcolor} bind def
/rot {rotate} bind def
/sc {scale} bind def
/sd {setdash} bind def
/ff {findfont} bind def
/sf {setfont} bind def
/scf {scalefont} bind def
/sw {stringwidth pop} bind def
/tr {translate} bind def

/ellipsedict 8 dict def
ellipsedict /mtrx matrix put
/ellipse
{ ellipsedict begin
   /endangle exch def
   /startangle exch def
   /yrad exch def
   /xrad exch def
   /y exch def
   /x exch def   /savematrix mtrx currentmatrix def
   x y tr xrad yrad sc
   0 0 1 startangle endangle arc
   savematrix setmatrix
   end
} def

/mergeprocs {
dup length
3 -1 roll
dup
length
dup
5 1 roll
3 -1 roll
add
array cvx
dup
3 -1 roll
0 exch
putinterval
dup
4 2 roll
putinterval
} bind def
/Times-Roman-latin1
    /Times-Roman findfont
    dup length dict begin
	{1 index /FID ne {def} {pop pop} ifelse} forall
	/Encoding isolatin1encoding def
    currentdict end
definefont pop
/Times-Italic-latin1
    /Times-Italic findfont
    dup length dict begin
	{1 index /FID ne {def} {pop pop} ifelse} forall
	/Encoding isolatin1encoding def
    currentdict end
definefont pop
/Times-Bold-latin1
    /Times-Bold findfont
    dup length dict begin
	{1 index /FID ne {def} {pop pop} ifelse} forall
	/Encoding isolatin1encoding def
    currentdict end
definefont pop
/Times-BoldItalic-latin1
    /Times-BoldItalic findfont
    dup length dict begin
	{1 index /FID ne {def} {pop pop} ifelse} forall
	/Encoding isolatin1encoding def
    currentdict end
definefont pop
/AvantGarde-Gothic-latin1
    /AvantGarde-Gothic findfont
    dup length dict begin
	{1 index /FID ne {def} {pop pop} ifelse} forall
	/Encoding isolatin1encoding def
    currentdict end
definefont pop
/AvantGarde-BookOblique-latin1
    /AvantGarde-BookOblique findfont
    dup length dict begin
	{1 index /FID ne {def} {pop pop} ifelse} forall
	/Encoding isolatin1encoding def
    currentdict end
definefont pop
/AvantGarde-Demi-latin1
    /AvantGarde-Demi findfont
    dup length dict begin
	{1 index /FID ne {def} {pop pop} ifelse} forall
	/Encoding isolatin1encoding def
    currentdict end
definefont pop
/AvantGarde-DemiOblique-latin1
    /AvantGarde-DemiOblique findfont
    dup length dict begin
	{1 index /FID ne {def} {pop pop} ifelse} forall
	/Encoding isolatin1encoding def
    currentdict end
definefont pop
/Bookman-Light-latin1
    /Bookman-Light findfont
    dup length dict begin
	{1 index /FID ne {def} {pop pop} ifelse} forall
	/Encoding isolatin1encoding def
    currentdict end
definefont pop
/Bookman-LightItalic-latin1
    /Bookman-LightItalic findfont
    dup length dict begin
	{1 index /FID ne {def} {pop pop} ifelse} forall
	/Encoding isolatin1encoding def
    currentdict end
definefont pop
/Bookman-Demi-latin1
    /Bookman-Demi findfont
    dup length dict begin
	{1 index /FID ne {def} {pop pop} ifelse} forall
	/Encoding isolatin1encoding def
    currentdict end
definefont pop
/Bookman-DemiItalic-latin1
    /Bookman-DemiItalic findfont
    dup length dict begin
	{1 index /FID ne {def} {pop pop} ifelse} forall
	/Encoding isolatin1encoding def
    currentdict end
definefont pop
/Courier-latin1
    /Courier findfont
    dup length dict begin
	{1 index /FID ne {def} {pop pop} ifelse} forall
	/Encoding isolatin1encoding def
    currentdict end
definefont pop
/Courier-Oblique-latin1
    /Courier-Oblique findfont
    dup length dict begin
	{1 index /FID ne {def} {pop pop} ifelse} forall
	/Encoding isolatin1encoding def
    currentdict end
definefont pop
/Courier-Bold-latin1
    /Courier-Bold findfont
    dup length dict begin
	{1 index /FID ne {def} {pop pop} ifelse} forall
	/Encoding isolatin1encoding def
    currentdict end
definefont pop
/Courier-BoldOblique-latin1
    /Courier-BoldOblique findfont
    dup length dict begin
	{1 index /FID ne {def} {pop pop} ifelse} forall
	/Encoding isolatin1encoding def
    currentdict end
definefont pop
/Helvetica-latin1
    /Helvetica findfont
    dup length dict begin
	{1 index /FID ne {def} {pop pop} ifelse} forall
	/Encoding isolatin1encoding def
    currentdict end
definefont pop
/Helvetica-Oblique-latin1
    /Helvetica-Oblique findfont
    dup length dict begin
	{1 index /FID ne {def} {pop pop} ifelse} forall
	/Encoding isolatin1encoding def
    currentdict end
definefont pop
/Helvetica-Bold-latin1
    /Helvetica-Bold findfont
    dup length dict begin
	{1 index /FID ne {def} {pop pop} ifelse} forall
	/Encoding isolatin1encoding def
    currentdict end
definefont pop
/Helvetica-BoldOblique-latin1
    /Helvetica-BoldOblique findfont
    dup length dict begin
	{1 index /FID ne {def} {pop pop} ifelse} forall
	/Encoding isolatin1encoding def
    currentdict end
definefont pop
/Helvetica-Narrow-latin1
    /Helvetica-Narrow findfont
    dup length dict begin
	{1 index /FID ne {def} {pop pop} ifelse} forall
	/Encoding isolatin1encoding def
    currentdict end
definefont pop
/Helvetica-Narrow-Oblique-latin1
    /Helvetica-Narrow-Oblique findfont
    dup length dict begin
	{1 index /FID ne {def} {pop pop} ifelse} forall
	/Encoding isolatin1encoding def
    currentdict end
definefont pop
/Helvetica-Narrow-Bold-latin1
    /Helvetica-Narrow-Bold findfont
    dup length dict begin
	{1 index /FID ne {def} {pop pop} ifelse} forall
	/Encoding isolatin1encoding def
    currentdict end
definefont pop
/Helvetica-Narrow-BoldOblique-latin1
    /Helvetica-Narrow-BoldOblique findfont
    dup length dict begin
	{1 index /FID ne {def} {pop pop} ifelse} forall
	/Encoding isolatin1encoding def
    currentdict end
definefont pop
/NewCenturySchlbk-Roman-latin1
    /NewCenturySchlbk-Roman findfont
    dup length dict begin
	{1 index /FID ne {def} {pop pop} ifelse} forall
	/Encoding isolatin1encoding def
    currentdict end
definefont pop
/NewCenturySchlbk-Italic-latin1
    /NewCenturySchlbk-Italic findfont
    dup length dict begin
	{1 index /FID ne {def} {pop pop} ifelse} forall
	/Encoding isolatin1encoding def
    currentdict end
definefont pop
/NewCenturySchlbk-Bold-latin1
    /NewCenturySchlbk-Bold findfont
    dup length dict begin
	{1 index /FID ne {def} {pop pop} ifelse} forall
	/Encoding isolatin1encoding def
    currentdict end
definefont pop
/NewCenturySchlbk-BoldItalic-latin1
    /NewCenturySchlbk-BoldItalic findfont
    dup length dict begin
	{1 index /FID ne {def} {pop pop} ifelse} forall
	/Encoding isolatin1encoding def
    currentdict end
definefont pop
/Palatino-Roman-latin1
    /Palatino-Roman findfont
    dup length dict begin
	{1 index /FID ne {def} {pop pop} ifelse} forall
	/Encoding isolatin1encoding def
    currentdict end
definefont pop
/Palatino-Italic-latin1
    /Palatino-Italic findfont
    dup length dict begin
	{1 index /FID ne {def} {pop pop} ifelse} forall
	/Encoding isolatin1encoding def
    currentdict end
definefont pop
/Palatino-Bold-latin1
    /Palatino-Bold findfont
    dup length dict begin
	{1 index /FID ne {def} {pop pop} ifelse} forall
	/Encoding isolatin1encoding def
    currentdict end
definefont pop
/Palatino-BoldItalic-latin1
    /Palatino-BoldItalic findfont
    dup length dict begin
	{1 index /FID ne {def} {pop pop} ifelse} forall
	/Encoding isolatin1encoding def
    currentdict end
definefont pop
/Symbol-latin1
    /Symbol findfont
definefont pop
/ZapfChancery-MediumItalic-latin1
    /ZapfChancery-MediumItalic findfont
    dup length dict begin
	{1 index /FID ne {def} {pop pop} ifelse} forall
	/Encoding isolatin1encoding def
    currentdict end
definefont pop
/ZapfDingbats-latin1
    /ZapfDingbats findfont
    dup length dict begin
	{1 index /FID ne {def} {pop pop} ifelse} forall
	/Encoding isolatin1encoding def
    currentdict end
definefont pop
17.693892 -17.693892 scale
-5.450000 -7.487500 translate
%%EndProlog


0.100000 slw
[] 0 sd
[] 0 sd
0 slj
0.847059 0.898039 0.898039 srgb
n 5.500000 2.500000 m 5.500000 4.000000 l 9.500000 4.000000 l 9.500000 2.500000 l f
0.000000 0.000000 0.000000 srgb
n 5.500000 2.500000 m 5.500000 4.000000 l 9.500000 4.000000 l 9.500000 2.500000 l cp s
0.100000 slw
[] 0 sd
[] 0 sd
0 slj
0.000000 0.000000 1.000000 srgb
n 9.500000 2.500000 m 9.500000 4.000000 l 13.500000 4.000000 l 13.500000 2.500000 l f
0.000000 0.000000 0.000000 srgb
n 9.500000 2.500000 m 9.500000 4.000000 l 13.500000 4.000000 l 13.500000 2.500000 l cp s
0.100000 slw
[] 0 sd
[] 0 sd
0 slj
1.000000 0.000000 0.000000 srgb
n 13.500000 2.500000 m 13.500000 4.000000 l 17.500000 4.000000 l 17.500000 2.500000 l f
0.000000 0.000000 0.000000 srgb
n 13.500000 2.500000 m 13.500000 4.000000 l 17.500000 4.000000 l 17.500000 2.500000 l cp s
/Helvetica-latin1 ff 0.560000 scf sf
(xxxxxxxx) dup sw 2 div 7.500000 ex sub 3.312500 m
 gs 1 -1 sc sh gr
/Helvetica-latin1 ff 0.560000 scf sf
1.000000 1.000000 1.000000 srgb
(xxxxxx00) dup sw 2 div 11.500000 ex sub 3.312500 m
 gs 1 -1 sc sh gr
/Helvetica-latin1 ff 0.560000 scf sf
(xxxxxx00) dup sw 2 div 15.500000 ex sub 3.312500 m
 gs 1 -1 sc sh gr
/Helvetica-latin1 ff 0.740833 scf sf
0.000000 0.000000 0.000000 srgb
(\(8 bit\)) dup sw 2 div 11.500000 ex sub 7.075833 m
 gs 1 -1 sc sh gr
0.100000 slw
[] 0 sd
[] 0 sd
0 slc
n 11.500000 4.000000 m 15.574457 6.263587 l s
[] 0 sd
0 slj
0 slc
n 15.902266 6.445703 m 15.343777 6.421421 l 15.574457 6.263587 l 15.586598 5.984343 l ef
n 15.902266 6.445703 m 15.343777 6.421421 l 15.574457 6.263587 l 15.586598 5.984343 l cp s
0.100000 slw
[] 0 sd
[] 0 sd
0 slc
n 15.500000 4.000000 m 18.126027 6.188356 l s
[] 0 sd
0 slj
0 slc
n 18.414110 6.428425 m 17.869954 6.300388 l 18.126027 6.188356 l 18.190046 5.916278 l ef
n 18.414110 6.428425 m 17.869954 6.300388 l 18.126027 6.188356 l 18.190046 5.916278 l cp s
0.100000 slw
[] 0 sd
[] 0 sd
0 slc
n 28.000000 4.000000 m 23.925543 6.263587 l s
[] 0 sd
0 slj
0 slc
n 23.597734 6.445703 m 23.913402 5.984343 l 23.925543 6.263587 l 24.156223 6.421421 l ef
n 23.597734 6.445703 m 23.913402 5.984343 l 23.925543 6.263587 l 24.156223 6.421421 l cp s
0.100000 slw
[] 0 sd
[] 0 sd
0 slc
n 24.000000 4.000000 m 21.373973 6.188356 l s
[] 0 sd
0 slj
0 slc
n 21.085890 6.428425 m 21.309954 5.916278 l 21.373973 6.188356 l 21.630046 6.300388 l ef
n 21.085890 6.428425 m 21.309954 5.916278 l 21.373973 6.188356 l 21.630046 6.300388 l cp s
/Helvetica-latin1 ff 0.560000 scf sf
(Y) dup sw 2 div 7.500000 ex sub 2.200000 m
 gs 1 -1 sc sh gr
(Cb) dup sw 2 div 11.500000 ex sub 2.200000 m
 gs 1 -1 sc sh gr
(Cr) dup sw 2 div 15.500000 ex sub 2.200000 m
 gs 1 -1 sc sh gr
0.100000 slw
[] 0 sd
[] 0 sd
0 slj
0.847059 0.898039 0.898039 srgb
n 18.000000 2.500000 m 18.000000 4.000000 l 22.000000 4.000000 l 22.000000 2.500000 l f
0.000000 0.000000 0.000000 srgb
n 18.000000 2.500000 m 18.000000 4.000000 l 22.000000 4.000000 l 22.000000 2.500000 l cp s
0.100000 slw
[] 0 sd
[] 0 sd
0 slj
0.000000 0.000000 1.000000 srgb
n 22.000000 2.500000 m 22.000000 4.000000 l 26.000000 4.000000 l 26.000000 2.500000 l f
0.000000 0.000000 0.000000 srgb
n 22.000000 2.500000 m 22.000000 4.000000 l 26.000000 4.000000 l 26.000000 2.500000 l cp s
0.100000 slw
[] 0 sd
[] 0 sd
0 slj
1.000000 0.000000 0.000000 srgb
n 26.000000 2.500000 m 26.000000 4.000000 l 30.000000 4.000000 l 30.000000 2.500000 l f
0.000000 0.000000 0.000000 srgb
n 26.000000 2.500000 m 26.000000 4.000000 l 30.000000 4.000000 l 30.000000 2.500000 l cp s
/Helvetica-latin1 ff 0.560000 scf sf
(xxxxxxxx) dup sw 2 div 20.000000 ex sub 3.312500 m
 gs 1 -1 sc sh gr
/Helvetica-latin1 ff 0.560000 scf sf
1.000000 1.000000 1.000000 srgb
(xxxxxx00) dup sw 2 div 24.000000 ex sub 3.312500 m
 gs 1 -1 sc sh gr
/Helvetica-latin1 ff 0.560000 scf sf
(xxxxxx00) dup sw 2 div 28.000000 ex sub 3.312500 m
 gs 1 -1 sc sh gr
/Helvetica-latin1 ff 0.740833 scf sf
0.000000 0.000000 0.000000 srgb
(00) dup sw 2 div 18.500000 ex sub 7.075833 m
 gs 1 -1 sc sh gr
(00) dup sw 2 div 16.000000 ex sub 7.075833 m
 gs 1 -1 sc sh gr
(00) dup sw 2 div 21.000000 ex sub 7.075833 m
 gs 1 -1 sc sh gr
(00) dup sw 2 div 23.500000 ex sub 7.075833 m
 gs 1 -1 sc sh gr
/Helvetica-latin1 ff 0.560000 scf sf
(Y) dup sw 2 div 20.000000 ex sub 2.162750 m
 gs 1 -1 sc sh gr
(Cb) dup sw 2 div 24.000000 ex sub 2.162750 m
 gs 1 -1 sc sh gr
(Cr) dup sw 2 div 28.000000 ex sub 2.162750 m
 gs 1 -1 sc sh gr
showpage
