\relax 
\providecommand\hyper@newdestlabel[2]{}
\providecommand\HyperFirstAtBeginDocument{\AtBeginDocument}
\HyperFirstAtBeginDocument{\ifx\hyper@anchor\@undefined
\global\let\oldcontentsline\contentsline
\gdef\contentsline#1#2#3#4{\oldcontentsline{#1}{#2}{#3}}
\global\let\oldnewlabel\newlabel
\gdef\newlabel#1#2{\newlabelxx{#1}#2}
\gdef\newlabelxx#1#2#3#4#5#6{\oldnewlabel{#1}{{#2}{#3}}}
\AtEndDocument{\ifx\hyper@anchor\@undefined
\let\contentsline\oldcontentsline
\let\newlabel\oldnewlabel
\fi}
\fi}
\global\let\hyper@last\relax 
\gdef\HyperFirstAtBeginDocument#1{#1}
\providecommand\HyField@AuxAddToFields[1]{}
\providecommand\HyField@AuxAddToCoFields[2]{}
\providecommand \oddpage@label [2]{}
\@writefile{toc}{\contentsline {chapter}{\numberline {1}Qt\discretionary {\unhbox \voidb@x \hbox {\relax \fontsize  {7}{8}\selectfont  $\leftarrow \joinrel  \rhook $}}{}{}Stego\discretionary {\unhbox \voidb@x \hbox {\relax \fontsize  {7}{8}\selectfont  $\leftarrow \joinrel  \rhook $}}{}{}Master}{1}{chapter.1}}
\@writefile{lof}{\addvspace {10\p@ }}
\@writefile{lot}{\addvspace {10\p@ }}
\newlabel{md__tmp_qtstegomaster_README}{{1}{1}{Qt\+Stego\+Master}{chapter.1}{}}
\@writefile{toc}{\contentsline {chapter}{\numberline {2}Namespace Index}{3}{chapter.2}}
\@writefile{lof}{\addvspace {10\p@ }}
\@writefile{lot}{\addvspace {10\p@ }}
\@writefile{toc}{\contentsline {section}{\numberline {2.1}Namespace List}{3}{section.2.1}}
\@writefile{toc}{\contentsline {chapter}{\numberline {3}Hierarchical Index}{5}{chapter.3}}
\@writefile{lof}{\addvspace {10\p@ }}
\@writefile{lot}{\addvspace {10\p@ }}
\@writefile{toc}{\contentsline {section}{\numberline {3.1}Class Hierarchy}{5}{section.3.1}}
\@writefile{toc}{\contentsline {chapter}{\numberline {4}Class Index}{7}{chapter.4}}
\@writefile{lof}{\addvspace {10\p@ }}
\@writefile{lot}{\addvspace {10\p@ }}
\@writefile{toc}{\contentsline {section}{\numberline {4.1}Class List}{7}{section.4.1}}
\@writefile{toc}{\contentsline {chapter}{\numberline {5}File Index}{9}{chapter.5}}
\@writefile{lof}{\addvspace {10\p@ }}
\@writefile{lot}{\addvspace {10\p@ }}
\@writefile{toc}{\contentsline {section}{\numberline {5.1}File List}{9}{section.5.1}}
\@writefile{toc}{\contentsline {chapter}{\numberline {6}Namespace Documentation}{11}{chapter.6}}
\@writefile{lof}{\addvspace {10\p@ }}
\@writefile{lot}{\addvspace {10\p@ }}
\@writefile{toc}{\contentsline {section}{\numberline {6.1}Ui Namespace Reference}{11}{section.6.1}}
\newlabel{namespace_ui}{{6.1}{11}{Ui Namespace Reference}{section.6.1}{}}
\@writefile{toc}{\contentsline {chapter}{\numberline {7}Class Documentation}{13}{chapter.7}}
\@writefile{lof}{\addvspace {10\p@ }}
\@writefile{lot}{\addvspace {10\p@ }}
\@writefile{toc}{\contentsline {section}{\numberline {7.1}Code\discretionary {\unhbox \voidb@x \hbox {\relax \fontsize  {7}{8}\selectfont  $\leftarrow \joinrel  \rhook $}}{}{}Page Class Reference}{13}{section.7.1}}
\newlabel{class_code_page}{{7.1}{13}{Code\+Page Class Reference}{section.7.1}{}}
\@writefile{toc}{\contentsline {subsection}{\numberline {7.1.1}Detailed Description}{14}{subsection.7.1.1}}
\@writefile{toc}{\contentsline {subsection}{\numberline {7.1.2}Constructor \& Destructor Documentation}{14}{subsection.7.1.2}}
\@writefile{toc}{\contentsline {subsubsection}{\numberline {7.1.2.1}$\sim $\discretionary {\unhbox \voidb@x \hbox {\relax \fontsize  {7}{8}\selectfont  $\leftarrow \joinrel  \rhook $}}{}{}Code\discretionary {\unhbox \voidb@x \hbox {\relax \fontsize  {7}{8}\selectfont  $\leftarrow \joinrel  \rhook $}}{}{}Page()}{14}{subsubsection.7.1.2.1}}
\newlabel{class_code_page_ae74e0a02983b6cb8bc67aa6f3ecd5b59}{{7.1.2.1}{14}{\texorpdfstring {$\sim $\+Code\+Page()}{~CodePage()}}{subsubsection.7.1.2.1}{}}
\@writefile{toc}{\contentsline {subsubsection}{\numberline {7.1.2.2}Code\discretionary {\unhbox \voidb@x \hbox {\relax \fontsize  {7}{8}\selectfont  $\leftarrow \joinrel  \rhook $}}{}{}Page()}{15}{subsubsection.7.1.2.2}}
\newlabel{class_code_page_aa4154be70a3bf4145f310651bdc2e7c5}{{7.1.2.2}{15}{\texorpdfstring {Code\+Page()}{CodePage()}}{subsubsection.7.1.2.2}{}}
\@writefile{toc}{\contentsline {subsection}{\numberline {7.1.3}Member Function Documentation}{15}{subsection.7.1.3}}
\@writefile{toc}{\contentsline {subsubsection}{\numberline {7.1.3.1}get()}{15}{subsubsection.7.1.3.1}}
\newlabel{class_code_page_ab25e32920d999c485ba41c5db6155d7b}{{7.1.3.1}{15}{\texorpdfstring {get()}{get()}}{subsubsection.7.1.3.1}{}}
\@writefile{toc}{\contentsline {subsubsection}{\numberline {7.1.3.2}get\discretionary {\unhbox \voidb@x \hbox {\relax \fontsize  {7}{8}\selectfont  $\leftarrow \joinrel  \rhook $}}{}{}Char(quint8 idx)}{16}{subsubsection.7.1.3.2}}
\newlabel{class_code_page_a116a4b22102d7c7894559a1fa2f2aa21}{{7.1.3.2}{16}{\texorpdfstring {get\+Char(quint8 idx)}{getChar(quint8 idx)}}{subsubsection.7.1.3.2}{}}
\@writefile{toc}{\contentsline {subsubsection}{\numberline {7.1.3.3}get\discretionary {\unhbox \voidb@x \hbox {\relax \fontsize  {7}{8}\selectfont  $\leftarrow \joinrel  \rhook $}}{}{}Code(\discretionary {\unhbox \voidb@x \hbox {\relax \fontsize  {7}{8}\selectfont  $\leftarrow \joinrel  \rhook $}}{}{}Q\discretionary {\unhbox \voidb@x \hbox {\relax \fontsize  {7}{8}\selectfont  $\leftarrow \joinrel  \rhook $}}{}{}Char chr)}{16}{subsubsection.7.1.3.3}}
\newlabel{class_code_page_a534059af5a2c5a3f6f7294864fa082b0}{{7.1.3.3}{16}{\texorpdfstring {get\+Code(\+Q\+Char chr)}{getCode(QChar chr)}}{subsubsection.7.1.3.3}{}}
\@writefile{toc}{\contentsline {subsection}{\numberline {7.1.4}Member Data Documentation}{16}{subsection.7.1.4}}
\@writefile{toc}{\contentsline {subsubsection}{\numberline {7.1.4.1}chars}{16}{subsubsection.7.1.4.1}}
\newlabel{class_code_page_aa36ec63be897ab40121b4cf44af459b1}{{7.1.4.1}{16}{\texorpdfstring {chars}{chars}}{subsubsection.7.1.4.1}{}}
\@writefile{toc}{\contentsline {subsubsection}{\numberline {7.1.4.2}codes}{16}{subsubsection.7.1.4.2}}
\newlabel{class_code_page_afebef8b985a772b797ee3df9bca5b57b}{{7.1.4.2}{16}{\texorpdfstring {codes}{codes}}{subsubsection.7.1.4.2}{}}
\@writefile{toc}{\contentsline {subsubsection}{\numberline {7.1.4.3}instance}{16}{subsubsection.7.1.4.3}}
\newlabel{class_code_page_a0e93319b968e5827b3e366da69f7e5ad}{{7.1.4.3}{16}{\texorpdfstring {instance}{instance}}{subsubsection.7.1.4.3}{}}
\@writefile{toc}{\contentsline {subsubsection}{\numberline {7.1.4.4}shift}{16}{subsubsection.7.1.4.4}}
\newlabel{class_code_page_a533f50bb3b88fe14a0158883b775bdd3}{{7.1.4.4}{16}{\texorpdfstring {shift}{shift}}{subsubsection.7.1.4.4}{}}
\@writefile{toc}{\contentsline {subsubsection}{\numberline {7.1.4.5}size}{16}{subsubsection.7.1.4.5}}
\newlabel{class_code_page_a9392037a1447a29703f83489801f8562}{{7.1.4.5}{16}{\texorpdfstring {size}{size}}{subsubsection.7.1.4.5}{}}
\@writefile{toc}{\contentsline {subsubsection}{\numberline {7.1.4.6}stop}{17}{subsubsection.7.1.4.6}}
\newlabel{class_code_page_ad1c7930e67ce560f61cad4e945b17190}{{7.1.4.6}{17}{\texorpdfstring {stop}{stop}}{subsubsection.7.1.4.6}{}}
\@writefile{toc}{\contentsline {subsubsection}{\numberline {7.1.4.7}ushift}{17}{subsubsection.7.1.4.7}}
\newlabel{class_code_page_abbc47fde2d3d898dc86ffd0524b326ad}{{7.1.4.7}{17}{\texorpdfstring {ushift}{ushift}}{subsubsection.7.1.4.7}{}}
\@writefile{toc}{\contentsline {subsubsection}{\numberline {7.1.4.8}ustop}{17}{subsubsection.7.1.4.8}}
\newlabel{class_code_page_aff62f3e96f0fba668f625cb1cf43a36a}{{7.1.4.8}{17}{\texorpdfstring {ustop}{ustop}}{subsubsection.7.1.4.8}{}}
\@writefile{toc}{\contentsline {section}{\numberline {7.2}Coding\discretionary {\unhbox \voidb@x \hbox {\relax \fontsize  {7}{8}\selectfont  $\leftarrow \joinrel  \rhook $}}{}{}Engine Class Reference}{17}{section.7.2}}
\newlabel{class_coding_engine}{{7.2}{17}{Coding\+Engine Class Reference}{section.7.2}{}}
\@writefile{toc}{\contentsline {subsection}{\numberline {7.2.1}Detailed Description}{19}{subsection.7.2.1}}
\@writefile{toc}{\contentsline {subsection}{\numberline {7.2.2}Constructor \& Destructor Documentation}{19}{subsection.7.2.2}}
\@writefile{toc}{\contentsline {subsubsection}{\numberline {7.2.2.1}Coding\discretionary {\unhbox \voidb@x \hbox {\relax \fontsize  {7}{8}\selectfont  $\leftarrow \joinrel  \rhook $}}{}{}Engine()}{19}{subsubsection.7.2.2.1}}
\newlabel{class_coding_engine_a8ba4c851ed861b707806cbc91faaa513}{{7.2.2.1}{19}{\texorpdfstring {Coding\+Engine()}{CodingEngine()}}{subsubsection.7.2.2.1}{}}
\@writefile{toc}{\contentsline {subsubsection}{\numberline {7.2.2.2}Coding\discretionary {\unhbox \voidb@x \hbox {\relax \fontsize  {7}{8}\selectfont  $\leftarrow \joinrel  \rhook $}}{}{}Engine(\discretionary {\unhbox \voidb@x \hbox {\relax \fontsize  {7}{8}\selectfont  $\leftarrow \joinrel  \rhook $}}{}{}Q\discretionary {\unhbox \voidb@x \hbox {\relax \fontsize  {7}{8}\selectfont  $\leftarrow \joinrel  \rhook $}}{}{}Image $\ast $img)}{19}{subsubsection.7.2.2.2}}
\newlabel{class_coding_engine_a2090b25c7ce488db374c6f1a3eec1e51}{{7.2.2.2}{19}{\texorpdfstring {Coding\+Engine(\+Q\+Image $\ast $img)}{CodingEngine(QImage *img)}}{subsubsection.7.2.2.2}{}}
\@writefile{toc}{\contentsline {subsubsection}{\numberline {7.2.2.3}$\sim $\discretionary {\unhbox \voidb@x \hbox {\relax \fontsize  {7}{8}\selectfont  $\leftarrow \joinrel  \rhook $}}{}{}Coding\discretionary {\unhbox \voidb@x \hbox {\relax \fontsize  {7}{8}\selectfont  $\leftarrow \joinrel  \rhook $}}{}{}Engine()}{19}{subsubsection.7.2.2.3}}
\newlabel{class_coding_engine_a521a746602b1035e5968ff1906676d2d}{{7.2.2.3}{19}{\texorpdfstring {$\sim $\+Coding\+Engine()}{~CodingEngine()}}{subsubsection.7.2.2.3}{}}
\@writefile{toc}{\contentsline {subsection}{\numberline {7.2.3}Member Function Documentation}{20}{subsection.7.2.3}}
\@writefile{toc}{\contentsline {subsubsection}{\numberline {7.2.3.1}decode()}{20}{subsubsection.7.2.3.1}}
\newlabel{class_coding_engine_a595d87986fef8f186f7f03592747cd50}{{7.2.3.1}{20}{\texorpdfstring {decode()}{decode()}}{subsubsection.7.2.3.1}{}}
\@writefile{toc}{\contentsline {subsubsection}{\numberline {7.2.3.2}encode(\discretionary {\unhbox \voidb@x \hbox {\relax \fontsize  {7}{8}\selectfont  $\leftarrow \joinrel  \rhook $}}{}{}Q\discretionary {\unhbox \voidb@x \hbox {\relax \fontsize  {7}{8}\selectfont  $\leftarrow \joinrel  \rhook $}}{}{}String \&txt)}{20}{subsubsection.7.2.3.2}}
\newlabel{class_coding_engine_a2e8841f386e157c62862cbffd72ab736}{{7.2.3.2}{20}{\texorpdfstring {encode(\+Q\+String \&txt)}{encode(QString &txt)}}{subsubsection.7.2.3.2}{}}
\gdef \LT@i {\LT@entry 
    {3}{41.30247pt}\LT@entry 
    {3}{51.8732pt}}
\@writefile{toc}{\contentsline {subsubsection}{\numberline {7.2.3.3}get\discretionary {\unhbox \voidb@x \hbox {\relax \fontsize  {7}{8}\selectfont  $\leftarrow \joinrel  \rhook $}}{}{}Byte(\discretionary {\unhbox \voidb@x \hbox {\relax \fontsize  {7}{8}\selectfont  $\leftarrow \joinrel  \rhook $}}{}{}Q\discretionary {\unhbox \voidb@x \hbox {\relax \fontsize  {7}{8}\selectfont  $\leftarrow \joinrel  \rhook $}}{}{}Color pix)}{21}{subsubsection.7.2.3.3}}
\newlabel{class_coding_engine_aa5087549278bc9ffa6bc08f75b254856}{{7.2.3.3}{21}{\texorpdfstring {get\+Byte(\+Q\+Color pix)}{getByte(QColor pix)}}{subsubsection.7.2.3.3}{}}
\gdef \LT@ii {\LT@entry 
    {3}{41.30247pt}\LT@entry 
    {3}{188.50784pt}}
\@writefile{toc}{\contentsline {subsubsection}{\numberline {7.2.3.4}get\discretionary {\unhbox \voidb@x \hbox {\relax \fontsize  {7}{8}\selectfont  $\leftarrow \joinrel  \rhook $}}{}{}Image()}{22}{subsubsection.7.2.3.4}}
\newlabel{class_coding_engine_aaf06dffa0e8d2cfd355a51d081e8b87b}{{7.2.3.4}{22}{\texorpdfstring {get\+Image()}{getImage()}}{subsubsection.7.2.3.4}{}}
\@writefile{toc}{\contentsline {subsubsection}{\numberline {7.2.3.5}set\discretionary {\unhbox \voidb@x \hbox {\relax \fontsize  {7}{8}\selectfont  $\leftarrow \joinrel  \rhook $}}{}{}Byte(\discretionary {\unhbox \voidb@x \hbox {\relax \fontsize  {7}{8}\selectfont  $\leftarrow \joinrel  \rhook $}}{}{}Q\discretionary {\unhbox \voidb@x \hbox {\relax \fontsize  {7}{8}\selectfont  $\leftarrow \joinrel  \rhook $}}{}{}Color pix, quint8 byte)}{22}{subsubsection.7.2.3.5}}
\newlabel{class_coding_engine_abe7d627fdaa5de5bdf3221ff8019b355}{{7.2.3.5}{22}{\texorpdfstring {set\+Byte(\+Q\+Color pix, quint8 byte)}{setByte(QColor pix, quint8 byte)}}{subsubsection.7.2.3.5}{}}
\@writefile{toc}{\contentsline {subsubsection}{\numberline {7.2.3.6}set\discretionary {\unhbox \voidb@x \hbox {\relax \fontsize  {7}{8}\selectfont  $\leftarrow \joinrel  \rhook $}}{}{}Image(\discretionary {\unhbox \voidb@x \hbox {\relax \fontsize  {7}{8}\selectfont  $\leftarrow \joinrel  \rhook $}}{}{}Q\discretionary {\unhbox \voidb@x \hbox {\relax \fontsize  {7}{8}\selectfont  $\leftarrow \joinrel  \rhook $}}{}{}Image $\ast $img)}{22}{subsubsection.7.2.3.6}}
\newlabel{class_coding_engine_abc6f88eedf4e7cef5ba023442800abb8}{{7.2.3.6}{22}{\texorpdfstring {set\+Image(\+Q\+Image $\ast $img)}{setImage(QImage *img)}}{subsubsection.7.2.3.6}{}}
\gdef \LT@iii {\LT@entry 
    {3}{44.81236pt}\LT@entry 
    {3}{124.00645pt}}
\@writefile{toc}{\contentsline {subsection}{\numberline {7.2.4}Member Data Documentation}{23}{subsection.7.2.4}}
\@writefile{toc}{\contentsline {subsubsection}{\numberline {7.2.4.1}bitmask}{23}{subsubsection.7.2.4.1}}
\newlabel{class_coding_engine_a8a8cbcea5561a0a6a022225c2f4c8df3}{{7.2.4.1}{23}{\texorpdfstring {bitmask}{bitmask}}{subsubsection.7.2.4.1}{}}
\@writefile{toc}{\contentsline {subsubsection}{\numberline {7.2.4.2}cp}{23}{subsubsection.7.2.4.2}}
\newlabel{class_coding_engine_ab9662d1af5a7d97b54e30c9dd3efe31b}{{7.2.4.2}{23}{\texorpdfstring {cp}{cp}}{subsubsection.7.2.4.2}{}}
\@writefile{toc}{\contentsline {subsubsection}{\numberline {7.2.4.3}img}{23}{subsubsection.7.2.4.3}}
\newlabel{class_coding_engine_a9edf5948acd02c94d2f879df45cf6a65}{{7.2.4.3}{23}{\texorpdfstring {img}{img}}{subsubsection.7.2.4.3}{}}
\@writefile{toc}{\contentsline {section}{\numberline {7.3}imageio Class Reference}{24}{section.7.3}}
\newlabel{classimageio}{{7.3}{24}{imageio Class Reference}{section.7.3}{}}
\@writefile{toc}{\contentsline {subsection}{\numberline {7.3.1}Detailed Description}{24}{subsection.7.3.1}}
\@writefile{toc}{\contentsline {subsection}{\numberline {7.3.2}Constructor \& Destructor Documentation}{24}{subsection.7.3.2}}
\@writefile{toc}{\contentsline {subsubsection}{\numberline {7.3.2.1}imageio()}{24}{subsubsection.7.3.2.1}}
\newlabel{classimageio_a1a0f9128a69b4863c11fbf5ac1595e46}{{7.3.2.1}{24}{\texorpdfstring {imageio()}{imageio()}}{subsubsection.7.3.2.1}{}}
\@writefile{toc}{\contentsline {subsubsection}{\numberline {7.3.2.2}$\sim $imageio()}{25}{subsubsection.7.3.2.2}}
\newlabel{classimageio_ab2eacc6491c7aba6c02cc34aefc8a04e}{{7.3.2.2}{25}{\texorpdfstring {$\sim $imageio()}{~imageio()}}{subsubsection.7.3.2.2}{}}
\@writefile{toc}{\contentsline {subsection}{\numberline {7.3.3}Member Function Documentation}{25}{subsection.7.3.3}}
\@writefile{toc}{\contentsline {subsubsection}{\numberline {7.3.3.1}get\discretionary {\unhbox \voidb@x \hbox {\relax \fontsize  {7}{8}\selectfont  $\leftarrow \joinrel  \rhook $}}{}{}\_\discretionary {\unhbox \voidb@x \hbox {\relax \fontsize  {7}{8}\selectfont  $\leftarrow \joinrel  \rhook $}}{}{}dstimage()}{25}{subsubsection.7.3.3.1}}
\newlabel{classimageio_a70a2274f4faf5c0e398598f526b0d697}{{7.3.3.1}{25}{\texorpdfstring {get\+\_\+dstimage()}{get_dstimage()}}{subsubsection.7.3.3.1}{}}
\@writefile{toc}{\contentsline {subsubsection}{\numberline {7.3.3.2}get\discretionary {\unhbox \voidb@x \hbox {\relax \fontsize  {7}{8}\selectfont  $\leftarrow \joinrel  \rhook $}}{}{}\_\discretionary {\unhbox \voidb@x \hbox {\relax \fontsize  {7}{8}\selectfont  $\leftarrow \joinrel  \rhook $}}{}{}srcimage()}{25}{subsubsection.7.3.3.2}}
\newlabel{classimageio_afcb59129fff1cbe59f1be305afdc3036}{{7.3.3.2}{25}{\texorpdfstring {get\+\_\+srcimage()}{get_srcimage()}}{subsubsection.7.3.3.2}{}}
\gdef \LT@iv {\LT@entry 
    {3}{55.80136pt}\LT@entry 
    {3}{30.55266pt}}
\gdef \LT@v {\LT@entry 
    {3}{55.80136pt}\LT@entry 
    {3}{131.54877pt}}
\@writefile{toc}{\contentsline {subsubsection}{\numberline {7.3.3.3}get\discretionary {\unhbox \voidb@x \hbox {\relax \fontsize  {7}{8}\selectfont  $\leftarrow \joinrel  \rhook $}}{}{}\_\discretionary {\unhbox \voidb@x \hbox {\relax \fontsize  {7}{8}\selectfont  $\leftarrow \joinrel  \rhook $}}{}{}srcimage\discretionary {\unhbox \voidb@x \hbox {\relax \fontsize  {7}{8}\selectfont  $\leftarrow \joinrel  \rhook $}}{}{}\_\discretionary {\unhbox \voidb@x \hbox {\relax \fontsize  {7}{8}\selectfont  $\leftarrow \joinrel  \rhook $}}{}{}size()}{26}{subsubsection.7.3.3.3}}
\newlabel{classimageio_a14a3f212b38ed30ddcba9e7bd68da40b}{{7.3.3.3}{26}{\texorpdfstring {get\+\_\+srcimage\+\_\+size()}{get_srcimage_size()}}{subsubsection.7.3.3.3}{}}
\@writefile{toc}{\contentsline {subsubsection}{\numberline {7.3.3.4}load\discretionary {\unhbox \voidb@x \hbox {\relax \fontsize  {7}{8}\selectfont  $\leftarrow \joinrel  \rhook $}}{}{}\_\discretionary {\unhbox \voidb@x \hbox {\relax \fontsize  {7}{8}\selectfont  $\leftarrow \joinrel  \rhook $}}{}{}image(\discretionary {\unhbox \voidb@x \hbox {\relax \fontsize  {7}{8}\selectfont  $\leftarrow \joinrel  \rhook $}}{}{}Q\discretionary {\unhbox \voidb@x \hbox {\relax \fontsize  {7}{8}\selectfont  $\leftarrow \joinrel  \rhook $}}{}{}String filepath)}{26}{subsubsection.7.3.3.4}}
\newlabel{classimageio_aefa413bd5560de0e08e8dda6f4818491}{{7.3.3.4}{26}{\texorpdfstring {load\+\_\+image(\+Q\+String filepath)}{load_image(QString filepath)}}{subsubsection.7.3.3.4}{}}
\@writefile{toc}{\contentsline {subsubsection}{\numberline {7.3.3.5}save\discretionary {\unhbox \voidb@x \hbox {\relax \fontsize  {7}{8}\selectfont  $\leftarrow \joinrel  \rhook $}}{}{}\_\discretionary {\unhbox \voidb@x \hbox {\relax \fontsize  {7}{8}\selectfont  $\leftarrow \joinrel  \rhook $}}{}{}image(\discretionary {\unhbox \voidb@x \hbox {\relax \fontsize  {7}{8}\selectfont  $\leftarrow \joinrel  \rhook $}}{}{}Q\discretionary {\unhbox \voidb@x \hbox {\relax \fontsize  {7}{8}\selectfont  $\leftarrow \joinrel  \rhook $}}{}{}String filepath, Q\discretionary {\unhbox \voidb@x \hbox {\relax \fontsize  {7}{8}\selectfont  $\leftarrow \joinrel  \rhook $}}{}{}Image img)}{26}{subsubsection.7.3.3.5}}
\newlabel{classimageio_a219d59ad4c2a190f8faabf235614adef}{{7.3.3.5}{26}{\texorpdfstring {save\+\_\+image(\+Q\+String filepath, Q\+Image img)}{save_image(QString filepath, QImage img)}}{subsubsection.7.3.3.5}{}}
\gdef \LT@vi {\LT@entry 
    {3}{40.86136pt}\LT@entry 
    {3}{191.48717pt}}
\@writefile{toc}{\contentsline {subsubsection}{\numberline {7.3.3.6}set\discretionary {\unhbox \voidb@x \hbox {\relax \fontsize  {7}{8}\selectfont  $\leftarrow \joinrel  \rhook $}}{}{}\_\discretionary {\unhbox \voidb@x \hbox {\relax \fontsize  {7}{8}\selectfont  $\leftarrow \joinrel  \rhook $}}{}{}dst\discretionary {\unhbox \voidb@x \hbox {\relax \fontsize  {7}{8}\selectfont  $\leftarrow \joinrel  \rhook $}}{}{}\_\discretionary {\unhbox \voidb@x \hbox {\relax \fontsize  {7}{8}\selectfont  $\leftarrow \joinrel  \rhook $}}{}{}image(\discretionary {\unhbox \voidb@x \hbox {\relax \fontsize  {7}{8}\selectfont  $\leftarrow \joinrel  \rhook $}}{}{}Q\discretionary {\unhbox \voidb@x \hbox {\relax \fontsize  {7}{8}\selectfont  $\leftarrow \joinrel  \rhook $}}{}{}Image $\ast $img)}{27}{subsubsection.7.3.3.6}}
\newlabel{classimageio_abb68d990176a0366a663a27f335c74a4}{{7.3.3.6}{27}{\texorpdfstring {set\+\_\+dst\+\_\+image(\+Q\+Image $\ast $img)}{set_dst_image(QImage *img)}}{subsubsection.7.3.3.6}{}}
\@writefile{toc}{\contentsline {subsection}{\numberline {7.3.4}Member Data Documentation}{27}{subsection.7.3.4}}
\@writefile{toc}{\contentsline {subsubsection}{\numberline {7.3.4.1}dst\discretionary {\unhbox \voidb@x \hbox {\relax \fontsize  {7}{8}\selectfont  $\leftarrow \joinrel  \rhook $}}{}{}\_\discretionary {\unhbox \voidb@x \hbox {\relax \fontsize  {7}{8}\selectfont  $\leftarrow \joinrel  \rhook $}}{}{}image}{27}{subsubsection.7.3.4.1}}
\newlabel{classimageio_a7a73c42719177754c77bd62306f8cc29}{{7.3.4.1}{27}{\texorpdfstring {dst\+\_\+image}{dst_image}}{subsubsection.7.3.4.1}{}}
\@writefile{toc}{\contentsline {subsubsection}{\numberline {7.3.4.2}src\discretionary {\unhbox \voidb@x \hbox {\relax \fontsize  {7}{8}\selectfont  $\leftarrow \joinrel  \rhook $}}{}{}\_\discretionary {\unhbox \voidb@x \hbox {\relax \fontsize  {7}{8}\selectfont  $\leftarrow \joinrel  \rhook $}}{}{}image}{27}{subsubsection.7.3.4.2}}
\newlabel{classimageio_a010958dfed252b19f2d1eae29d569771}{{7.3.4.2}{27}{\texorpdfstring {src\+\_\+image}{src_image}}{subsubsection.7.3.4.2}{}}
\@writefile{toc}{\contentsline {section}{\numberline {7.4}stegogui Class Reference}{27}{section.7.4}}
\newlabel{classstegogui}{{7.4}{27}{stegogui Class Reference}{section.7.4}{}}
\@writefile{toc}{\contentsline {subsection}{\numberline {7.4.1}Detailed Description}{30}{subsection.7.4.1}}
\@writefile{toc}{\contentsline {subsection}{\numberline {7.4.2}Constructor \& Destructor Documentation}{30}{subsection.7.4.2}}
\@writefile{toc}{\contentsline {subsubsection}{\numberline {7.4.2.1}stegogui(\discretionary {\unhbox \voidb@x \hbox {\relax \fontsize  {7}{8}\selectfont  $\leftarrow \joinrel  \rhook $}}{}{}Q\discretionary {\unhbox \voidb@x \hbox {\relax \fontsize  {7}{8}\selectfont  $\leftarrow \joinrel  \rhook $}}{}{}Widget $\ast $parent=0)}{30}{subsubsection.7.4.2.1}}
\newlabel{classstegogui_add08fc79b0d1612aaee2482af2aa9da4}{{7.4.2.1}{30}{\texorpdfstring {stegogui(\+Q\+Widget $\ast $parent=0)}{stegogui(QWidget *parent=0)}}{subsubsection.7.4.2.1}{}}
\gdef \LT@vii {\LT@entry 
    {3}{43.44423pt}\LT@entry 
    {3}{113.15317pt}}
\@writefile{toc}{\contentsline {subsubsection}{\numberline {7.4.2.2}$\sim $stegogui()}{31}{subsubsection.7.4.2.2}}
\newlabel{classstegogui_ad04741cc41c070cebbd5f0d2296d7cea}{{7.4.2.2}{31}{\texorpdfstring {$\sim $stegogui()}{~stegogui()}}{subsubsection.7.4.2.2}{}}
\@writefile{toc}{\contentsline {subsection}{\numberline {7.4.3}Member Function Documentation}{31}{subsection.7.4.3}}
\@writefile{toc}{\contentsline {subsubsection}{\numberline {7.4.3.1}display\discretionary {\unhbox \voidb@x \hbox {\relax \fontsize  {7}{8}\selectfont  $\leftarrow \joinrel  \rhook $}}{}{}\_\discretionary {\unhbox \voidb@x \hbox {\relax \fontsize  {7}{8}\selectfont  $\leftarrow \joinrel  \rhook $}}{}{}error(\discretionary {\unhbox \voidb@x \hbox {\relax \fontsize  {7}{8}\selectfont  $\leftarrow \joinrel  \rhook $}}{}{}Q\discretionary {\unhbox \voidb@x \hbox {\relax \fontsize  {7}{8}\selectfont  $\leftarrow \joinrel  \rhook $}}{}{}String errmsg)}{31}{subsubsection.7.4.3.1}}
\newlabel{classstegogui_a14eb20d10a9ab08eb8e30787825a03f9}{{7.4.3.1}{31}{\texorpdfstring {display\+\_\+error(\+Q\+String errmsg)}{display_error(QString errmsg)}}{subsubsection.7.4.3.1}{}}
\@writefile{toc}{\contentsline {subsubsection}{\numberline {7.4.3.2}myembed}{31}{subsubsection.7.4.3.2}}
\newlabel{classstegogui_abe37a0b70372a2b564c1b19e1125d91c}{{7.4.3.2}{31}{\texorpdfstring {myembed}{myembed}}{subsubsection.7.4.3.2}{}}
\@writefile{toc}{\contentsline {subsubsection}{\numberline {7.4.3.3}myfileopen}{32}{subsubsection.7.4.3.3}}
\newlabel{classstegogui_a54d9a553256125ee967998bb09634197}{{7.4.3.3}{32}{\texorpdfstring {myfileopen}{myfileopen}}{subsubsection.7.4.3.3}{}}
\@writefile{toc}{\contentsline {subsubsection}{\numberline {7.4.3.4}myfilesave}{33}{subsubsection.7.4.3.4}}
\newlabel{classstegogui_ab2e04dcd9202ec5352c3636b3a18953a}{{7.4.3.4}{33}{\texorpdfstring {myfilesave}{myfilesave}}{subsubsection.7.4.3.4}{}}
\@writefile{toc}{\contentsline {subsubsection}{\numberline {7.4.3.5}mywithdraw}{33}{subsubsection.7.4.3.5}}
\newlabel{classstegogui_adf1bf01f29195a299d21e99018af47a2}{{7.4.3.5}{33}{\texorpdfstring {mywithdraw}{mywithdraw}}{subsubsection.7.4.3.5}{}}
\@writefile{toc}{\contentsline {subsubsection}{\numberline {7.4.3.6}update\discretionary {\unhbox \voidb@x \hbox {\relax \fontsize  {7}{8}\selectfont  $\leftarrow \joinrel  \rhook $}}{}{}Gui()}{34}{subsubsection.7.4.3.6}}
\newlabel{classstegogui_a0c136312d1c10020a1bdc1fd623ada41}{{7.4.3.6}{34}{\texorpdfstring {update\+Gui()}{updateGui()}}{subsubsection.7.4.3.6}{}}
\@writefile{toc}{\contentsline {subsection}{\numberline {7.4.4}Member Data Documentation}{35}{subsection.7.4.4}}
\@writefile{toc}{\contentsline {subsubsection}{\numberline {7.4.4.1}code}{35}{subsubsection.7.4.4.1}}
\newlabel{classstegogui_a1bd19d8cb33a2abfb86c3a1ba45d3cbb}{{7.4.4.1}{35}{\texorpdfstring {code}{code}}{subsubsection.7.4.4.1}{}}
\@writefile{toc}{\contentsline {subsubsection}{\numberline {7.4.4.2}fd}{35}{subsubsection.7.4.4.2}}
\newlabel{classstegogui_a2f29f3ac9f09572af59f5b38908dff7c}{{7.4.4.2}{35}{\texorpdfstring {fd}{fd}}{subsubsection.7.4.4.2}{}}
\@writefile{toc}{\contentsline {subsubsection}{\numberline {7.4.4.3}img}{35}{subsubsection.7.4.4.3}}
\newlabel{classstegogui_aea8c827463a527858dd4205ba3b2374f}{{7.4.4.3}{35}{\texorpdfstring {img}{img}}{subsubsection.7.4.4.3}{}}
\@writefile{toc}{\contentsline {subsubsection}{\numberline {7.4.4.4}intpuform}{35}{subsubsection.7.4.4.4}}
\newlabel{classstegogui_a8271599f2b25d1324a398bf6f9cc87e0}{{7.4.4.4}{35}{\texorpdfstring {intpuform}{intpuform}}{subsubsection.7.4.4.4}{}}
\@writefile{toc}{\contentsline {subsubsection}{\numberline {7.4.4.5}ui}{35}{subsubsection.7.4.4.5}}
\newlabel{classstegogui_a561ecac2d6d9cbe4289c18f855112143}{{7.4.4.5}{35}{\texorpdfstring {ui}{ui}}{subsubsection.7.4.4.5}{}}
\@writefile{toc}{\contentsline {chapter}{\numberline {8}File Documentation}{37}{chapter.8}}
\@writefile{lof}{\addvspace {10\p@ }}
\@writefile{lot}{\addvspace {10\p@ }}
\@writefile{toc}{\contentsline {section}{\numberline {8.1}codepage.\discretionary {\unhbox \voidb@x \hbox {\relax \fontsize  {7}{8}\selectfont  $\leftarrow \joinrel  \rhook $}}{}{}cpp File Reference}{37}{section.8.1}}
\newlabel{codepage_8cpp}{{8.1}{37}{codepage.\+cpp File Reference}{section.8.1}{}}
\@writefile{toc}{\contentsline {section}{\numberline {8.2}codepage.\discretionary {\unhbox \voidb@x \hbox {\relax \fontsize  {7}{8}\selectfont  $\leftarrow \joinrel  \rhook $}}{}{}h File Reference}{37}{section.8.2}}
\newlabel{codepage_8h}{{8.2}{37}{codepage.\+h File Reference}{section.8.2}{}}
\@writefile{toc}{\contentsline {section}{\numberline {8.3}codingengine.\discretionary {\unhbox \voidb@x \hbox {\relax \fontsize  {7}{8}\selectfont  $\leftarrow \joinrel  \rhook $}}{}{}cpp File Reference}{38}{section.8.3}}
\newlabel{codingengine_8cpp}{{8.3}{38}{codingengine.\+cpp File Reference}{section.8.3}{}}
\@writefile{toc}{\contentsline {section}{\numberline {8.4}codingengine.\discretionary {\unhbox \voidb@x \hbox {\relax \fontsize  {7}{8}\selectfont  $\leftarrow \joinrel  \rhook $}}{}{}h File Reference}{39}{section.8.4}}
\newlabel{codingengine_8h}{{8.4}{39}{codingengine.\+h File Reference}{section.8.4}{}}
\@writefile{toc}{\contentsline {section}{\numberline {8.5}imageio.\discretionary {\unhbox \voidb@x \hbox {\relax \fontsize  {7}{8}\selectfont  $\leftarrow \joinrel  \rhook $}}{}{}cpp File Reference}{40}{section.8.5}}
\newlabel{imageio_8cpp}{{8.5}{40}{imageio.\+cpp File Reference}{section.8.5}{}}
\@writefile{toc}{\contentsline {section}{\numberline {8.6}imageio.\discretionary {\unhbox \voidb@x \hbox {\relax \fontsize  {7}{8}\selectfont  $\leftarrow \joinrel  \rhook $}}{}{}h File Reference}{41}{section.8.6}}
\newlabel{imageio_8h}{{8.6}{41}{imageio.\+h File Reference}{section.8.6}{}}
\@writefile{toc}{\contentsline {section}{\numberline {8.7}main.\discretionary {\unhbox \voidb@x \hbox {\relax \fontsize  {7}{8}\selectfont  $\leftarrow \joinrel  \rhook $}}{}{}cpp File Reference}{41}{section.8.7}}
\newlabel{main_8cpp}{{8.7}{41}{main.\+cpp File Reference}{section.8.7}{}}
\@writefile{toc}{\contentsline {subsection}{\numberline {8.7.1}Function Documentation}{42}{subsection.8.7.1}}
\@writefile{toc}{\contentsline {subsubsection}{\numberline {8.7.1.1}main(int argc, char $\ast $argv[])}{42}{subsubsection.8.7.1.1}}
\newlabel{main_8cpp_a0ddf1224851353fc92bfbff6f499fa97}{{8.7.1.1}{42}{\texorpdfstring {main(int argc, char $\ast $argv[])}{main(int argc, char *argv[])}}{subsubsection.8.7.1.1}{}}
\@writefile{toc}{\contentsline {section}{\numberline {8.8}R\discretionary {\unhbox \voidb@x \hbox {\relax \fontsize  {7}{8}\selectfont  $\leftarrow \joinrel  \rhook $}}{}{}E\discretionary {\unhbox \voidb@x \hbox {\relax \fontsize  {7}{8}\selectfont  $\leftarrow \joinrel  \rhook $}}{}{}A\discretionary {\unhbox \voidb@x \hbox {\relax \fontsize  {7}{8}\selectfont  $\leftarrow \joinrel  \rhook $}}{}{}D\discretionary {\unhbox \voidb@x \hbox {\relax \fontsize  {7}{8}\selectfont  $\leftarrow \joinrel  \rhook $}}{}{}M\discretionary {\unhbox \voidb@x \hbox {\relax \fontsize  {7}{8}\selectfont  $\leftarrow \joinrel  \rhook $}}{}{}E.\discretionary {\unhbox \voidb@x \hbox {\relax \fontsize  {7}{8}\selectfont  $\leftarrow \joinrel  \rhook $}}{}{}md File Reference}{42}{section.8.8}}
\newlabel{_r_e_a_d_m_e_8md}{{8.8}{42}{R\+E\+A\+D\+M\+E.\+md File Reference}{section.8.8}{}}
\@writefile{toc}{\contentsline {section}{\numberline {8.9}stegogui.\discretionary {\unhbox \voidb@x \hbox {\relax \fontsize  {7}{8}\selectfont  $\leftarrow \joinrel  \rhook $}}{}{}cpp File Reference}{42}{section.8.9}}
\newlabel{stegogui_8cpp}{{8.9}{42}{stegogui.\+cpp File Reference}{section.8.9}{}}
\@writefile{toc}{\contentsline {section}{\numberline {8.10}stegogui.\discretionary {\unhbox \voidb@x \hbox {\relax \fontsize  {7}{8}\selectfont  $\leftarrow \joinrel  \rhook $}}{}{}h File Reference}{43}{section.8.10}}
\newlabel{stegogui_8h}{{8.10}{43}{stegogui.\+h File Reference}{section.8.10}{}}
\@writefile{toc}{\contentsline {chapter}{Index}{45}{section*.72}}
